Place,Name,Division,BodyweightKg,Squat1Kg,Squat2Kg,Squat3Kg,Best3SquatKg,Bench1Kg,Bench2Kg,Bench3Kg,Best3BenchKg,Bench4Kg,Deadlift1Kg,Deadlift2Kg,Deadlift3Kg,Best3DeadliftKg,Deadlift4Kg,TotalKg,WeightClassKg,Sex,CyrillicName,BirthYear,Equipment,Event
1,Irina Karasenko,Am O,51.4,100,-105,-105,100,62.5,-67.5,-67.5,62.5,,105,110,-112.5,110,,272.5,52,F,Ірина Карасенко,1986,Wraps,SBD
2,Olga Papirova,Am O,51.15,75,-85,-85,75,40,45,47.5,47.5,,90,100,110,110,,232.5,52,F,Ольга Папірова,1986,Wraps,SBD
3,Svitlana Kravchenko,Am O,52,80,-90,-95,80,40,45,-47.5,45,,-75,80,90,90,,215,52,F,Світлана Кравченко,1971,Wraps,SBD
DQ,Evgeniya Shevchuk,Am O,49.65,65,-70,-70,65,-37.5,40,-42.5,40,,-90,-90,,,,,52,F,Євгенія Шевчук,1982,Wraps,SBD
1,Svitlana Kravchenko,Am M1,52,80,-90,-95,80,40,45,-47.5,45,,-75,80,90,90,,215,52,F,Світлана Кравченко,1971,Wraps,SBD
1,Oleksandra Astakhova,Am O,53.85,120,-130,-130,120,65,70,-72.5,70,,120,-130,135,135,,325,56,F,Олександра Астахова,1990,Wraps,SBD
1,Nataliya Sokurenko,Am O,59.5,130,140,-150,140,70,75,77.5,77.5,,130,135,142.5,142.5,,360,60,F,Наталія Сокуренко,1981,Wraps,SBD
2,Oksana Beseda,Am O,59.8,110,-120,-125,110,-60,60,-62.5,60,,-120,140,-150,140,,310,60,F,Оксана Беседа,1987,Wraps,SBD
1,Gyulmira Stelmak,Am J,66.8,85,-95,100,100,45,55,-65,55,,90,100,105,105,,260,67.5,F,Гюльміра Стельмак,1996,Wraps,SBD
1,Oleksandra Uskova,Am O,63.05,-120,130,-140,130,57.5,60,,60,,140,-150,-150,140,,330,67.5,F,Олександра Ускова,1992,Wraps,SBD
2,Katerina Filipova,Am O,64.6,115,-125,-130,115,60,-67.5,-67.5,60,,115,125,-140,125,,300,67.5,F,Катерина Філіпова,1984,Wraps,SBD
3,Tetyana Malchenko,Am O,64.65,-80,85,90,90,45,-50,50,50,,-90,-90,90,90,,230,67.5,F,Тетяна Мальченко,1983,Wraps,SBD
DQ,Anastasiya Stetsenko,Am T1,68.8,-80,-92.5,-92.5,,,,,,,,,,,,,75,F,Анастасія Стеценко,2003,Wraps,SBD
1,Viktoriya Kapustyan,Am O,72.95,-110,110,120,120,45,50,52.5,52.5,,110,120,-130,120,,292.5,75,F,Вікторія Капустян,1988,Wraps,SBD
1,Dmitro Ardashov,Am T1,53.25,120,-127.5,127.5,127.5,60,67.5,-72.5,67.5,,120,127.5,130,130,,325,56,M,Дмитро Ардашов,2001,Wraps,SBD
DQ,Vitaliy Evtushok,Am O,57.35,-150,-150,-150,,,,,,,,,,,,,60,M,Віталій Євтушок,1993,Wraps,SBD
1,Ruslan Ivanchik,Am T3,65.35,140,-150,150,150,115,-125,-125,115,,150,-160,,150,,415,67.5,M,Руслан Іванчик,1999,Wraps,SBD
1,Oleksandr Onischenko,Am J,65.95,-127.5,127.5,-137.5,127.5,80,90,-100,90,,130,150,160,160,,377.5,67.5,M,Олександр Оніщенко,1996,Wraps,SBD
1,Sergiy Kalchuk,Am O,65.15,150,165,-175,165,105,112.5,117.5,117.5,,160,170,-180,170,,452.5,67.5,M,Сергій Кальчук,1989,Wraps,SBD
DQ,Sergiy Rogoviy,Am O,66.3,-100,-100,-100,,,,,,,,,,,,,67.5,M,Сергій Роговий,1987,Wraps,SBD
1,Pavlo Overchenko,Am T2,73.75,-175,-175,175,175,110,-115,-115,110,,-180,180,200,200,,485,75,M,Павло Оверченко,2000,Wraps,SBD
1,Oleg Zhuchkov,Am J,74.5,195,-205,-205,195,125,-130,130,130,,240,250,260,260,270,585,75,M,Олег Жучков,1994,Wraps,SBD
2,Yaroslav Samoylenko,Am J,72.75,-145,155,-165,155,105,112.5,-117.5,112.5,,170,180,192.5,192.5,,460,75,M,Ярослав Самойленко,1993,Wraps,SBD
DQ,Valentin Nesin,Am J,71.05,-205,-210,-210,,,,,,,,,,,,,75,M,Валентин Несин,1994,Wraps,SBD
1,Valentin Gontar,Am O,74.15,210,,,210,130,-140,140,140,,230,240,-250,240,,590,75,M,Валентин Гонтар,1987,Wraps,SBD
2,Sergiy Shevchenko,Am O,73.7,180,-195,-195,180,-110,110,-115,110,,180,200,215,215,,505,75,M,Сергій Шевченко,1991,Wraps,SBD
3,Yaroslav Panchenko,Am O,73.7,170,-180,-185,170,110,-115,-115,110,,-190,200,210,210,,490,75,M,Ярослав Панченко,1977,Wraps,SBD
1,Yaroslav Panchenko,Am M1,73.7,170,-180,-185,170,110,-115,-115,110,,-190,200,210,210,,490,75,M,Ярослав Панченко,1977,Wraps,SBD
1,Volodimir Galiga,Am J,80.6,150,170,180,180,105,115,120,120,,200,220,225,225,,525,82.5,M,Володимир Галига,1997,Wraps,SBD
2,Oleksiy Vasyanovich,Am J,80.7,180,-190,200,200,125,-130,-130,125,,180,190,-200,190,,515,82.5,M,Олексій Васянович,1994,Wraps,SBD
3,Oleksandr Pilipenko,Am J,79.2,165,172.5,-180,172.5,115,122.5,-127.5,122.5,,180,190,-200,190,,485,82.5,M,Олександр Пилипенко,1994,Wraps,SBD
1,Dmitro Smolinets,Am O,81.5,175,-185,-195,175,110,120,-125,120,,180,195,207.5,207.5,,502.5,82.5,M,Дмитро Смолинець,1982,Wraps,SBD
2,Arthur Mylin,Am O,78.55,180,-190,190,190,125,130,-135,130,,180,-190,-190,180,,500,82.5,M,Артур Милін,1989,Wraps,SBD
1,Oleksandr Ostrovskiy,Am M3,80.8,135,145,-155,145,85,95,,95,,150,-160,165,165,,405,82.5,M,Олександр Островський,1953,Wraps,SBD
1,Yuriy Starkov,Am M4,81.95,140,150,-155,150,100,105,110,110,,190,200,210,210,,470,82.5,M,Юрій Старков,1947,Wraps,SBD
1,Oleksandr Kryachok,Am J,87.95,180,-190,195,195,125,132.5,-140,132.5,,230,-262.5,-262.5,230,,557.5,90,M,Олександр Крячок,1996,Wraps,SBD
2,Taras Dubrova,Am J,88.3,190,-215,-225,190,-125,125,-132.5,125,,190,205,210,210,,525,90,M,Тарас Дуброва,1994,Wraps,SBD
1,Artem Shitiy,Am O,89.3,260,-280,282.5,282.5,170,-180,-180,170,,250,260,270,270,,722.5,90,M,Артем Шитий,1992,Wraps,SBD
2,Dmitro Goropakha,Am O,89.65,260,275,-282.5,275,-145,-145,145,145,,240,-250,,240,,660,90,M,Дмитро Горопаха,1992,Wraps,SBD
3,Evgen Levkovskiy,Am O,88.45,190,-210,-210,190,152.5,-160,-160,152.5,,220,-240,240,240,,582.5,90,M,Євген Левковський,1990,Wraps,SBD
DQ,Oleksiy Perebatinskiy,Am O,88.9,-245,-245,-245,,-245,,,,,,,,,,,90,M,Олексій Перебатинський,1989,Wraps,SBD
1,Viktor Poshtarenko,Am M1,88.35,185,-195,-202.5,185,125,135,-140,135,,210,225,231,231,,551,90,M,Віктор Поштаренко,1970,Wraps,SBD
DQ,Valentin Gostev,Am M1,89.2,-200,-200,-200,,,,,,,,,,,,,90,M,Валентин Гостєв,1975,Wraps,SBD
1,Gennadiy Ostrovskiy,Am M2,86.65,185,197.5,202.5,202.5,115,122.5,-127.5,122.5,,200,207.5,212.5,212.5,,537.5,90,M,Геннадій Островський,1965,Wraps,SBD
1,Yaroslav Govyada,Am T1,94.3,160,170,180,180,90,100,-105,100,,190,200,-210,200,,480,100,M,Ярослав Говяда,2003,Wraps,SBD
1,Evgeniy Ivanets,Am J,92.1,270,-280,-285,270,127.5,-132.5,-132.5,127.5,,-270,270,277.5,277.5,285,675,100,M,Євгеній Іванець,1995,Wraps,SBD
1,Evgeniy Ivanets,Am O,92.1,270,-280,-285,270,127.5,-132.5,-132.5,127.5,,-270,270,277.5,277.5,285,675,100,M,Євгеній Іванець,1995,Wraps,SBD
2,Andriy Sidorets,Am O,96.2,-230,230,250,250,140,-150,150,150,,230,245,250,250,,650,100,M,Андрій Сидорець,1991,Wraps,SBD
3,Evgen Omelyanovskiy,Am O,99.15,205,-215,-215,205,145,-155,-155,145,,215,230,240,240,,590,100,M,Євген Омельяновський,1989,Wraps,SBD
4,Pavlo Ivaschenko,Am O,97.5,-200,200,210,210,130,135,140,140,,200,215,-220,215,,565,100,M,Павло Іващенко,1986,Wraps,SBD
5,Oleksandr Savinikh,Am O,91.5,-200,-200,200,200,145,-147.5,,145,,200,210,,210,,555,100,M,Олександр Савіних,1993,Wraps,SBD
DQ,Maksim Gerasimenko,Am O,92.35,-210,210,230,230,135,145,-150,145,,-220,-230,-250,,,,100,M,Максим Герасименко,1985,Wraps,SBD
1,Yuriy Stetsenko,Am M1,92.05,170,-185,-185,170,115,125,-132.5,125,,170,185,-195,185,,480,100,M,Юрій Стеценко,1975,Wraps,SBD
1,Andriy Bronishevskiy,Am J,108.7,220,235,245,245,140,150,-155,150,,240,255,280,280,,675,110,M,Андрій Бронішевський,1993,Wraps,SBD
2,Oleksandr Telnikh,Am J,108.1,220,235,245,245,155,167.5,-172.5,167.5,,215,-225,-225,215,,627.5,110,M,Олександр Тельних,1994,Wraps,SBD
1,Andriy Bronishevskiy,Am O,108.7,220,235,245,245,140,150,-155,150,,240,255,280,280,,675,110,M,Андрій Бронішевський,1993,Wraps,SBD
2,Maksim Storozhishin,Am O,103,-220,220,-230,220,150,160,167.5,167.5,,230,250,-255,250,,637.5,110,M,Максим Сторожишин,1985,Wraps,SBD
3,Oleksandr Telnikh,Am O,108.1,220,235,245,245,155,167.5,-172.5,167.5,,215,-225,-225,215,,627.5,110,M,Олександр Тельних,1994,Wraps,SBD
4,Artem Karpovich,Am O,106.7,220,-240,-240,220,135,-142.5,-145,135,,230,-247.5,-247.5,230,,585,110,M,Артем Карпович,1993,Wraps,SBD
5,Sergiy Koryukivskiy,Am O,106.05,-180,-180,190,190,120,-127.5,127.5,127.5,,180,195,205,205,,522.5,110,M,Сергій Корюківський,1985,Wraps,SBD
1,Volodimir Kolomiets,Am M2,102.9,190,200,207.5,207.5,125,135,140,140,,200,210,215,215,,562.5,110,M,Володимир Коломієц,1966,Wraps,SBD
1,Viktor Stefanov,Am M3,102.7,160,172.5,-177.5,172.5,90,100,105,105,,160,167.5,,167.5,,445,110,M,Віктор Стефанов,1948,Wraps,SBD
1,Igor Zaychuk,Am O,115.3,265,280,-287.5,280,192.5,200,205,205,,285,-305,315,315,,800,125,M,Ігор Зайчук,1989,Wraps,SBD
1,Oles Petrenko,Am T2,129.6,160,-170,-170,160,80,85,-90,85,,180,190,-200,190,,435,140,M,Олесь Петренко,2000,Wraps,SBD
1,Grigoriy Barannik,Am O,126.4,210,-225,225,225,-150,150,-157.5,150,,230,240,250,250,,625,140,M,Григорій Бараннік,1990,Wraps,SBD
1,Evgeniya Desyatnikova,Pro T3,74.3,-130,130,140,140,70,80,-87.5,80,,130,140,155,155,,375,75,F,,1998,Wraps,SBD
1,Oleksiy Krokhmalenko,Pro J,73.35,-180,180,-210,180,110,122.5,-130,122.5,,-190,200,-210,200,,502.5,75,M,Олексій Крохмаленко,1997,Wraps,SBD
1,Arkadiy Shalokha,Pro O,82.5,310,325,-332.5,325,180,187.5,-192.5,187.5,,285,300,-310,300,,812.5,82.5,M,Аркадий Шалоха,1983,Wraps,SBD
2,Sergiy Bogatirenko,Pro O,76.5,-160,160,180,180,100,110,115,115,,170,185,200,200,,495,82.5,M,Сергій Богатиренко,1991,Wraps,SBD
1,Oleksandr Statnik,Pro O,89.5,235,-250,,235,-170,170,-182.5,170,,190,210,,210,,615,90,M,Олександр Статник,1988,Wraps,SBD
DQ,Vadim Yaroslavskiy,Pro O,88.65,-230,-240,-240,,,,,,,,,,,,,90,M,Вадим Ярославський,1984,Wraps,SBD
1,Sergiy Plotnikov,Pro J,97.6,240,250,265,265,160,172.5,177.5,177.5,,230,245,260,260,,702.5,100,M,Сергій Плотніков,1995,Wraps,SBD
1,Sergiy Plotnikov,Pro O,97.6,240,250,265,265,160,172.5,177.5,177.5,,230,245,260,260,,702.5,100,M,Сергій Плотніков,1995,Wraps,SBD
1,Maksim Ribalka,Pro O,108.9,300,310,317.5,317.5,170,175,-177.5,175,,300,-307.5,310,310,,802.5,110,M,Максим Рибалка,1993,Wraps,SBD
2,Viktor Chernysh,Pro O,108.95,300,-310,310,310,180,190,-195,190,,280,-290,295,295,,795,110,M,Виктор Черныш,1992,Wraps,SBD
3,Artem Turyanitsya,Pro O,100.3,290,305,,305,175,-182.5,,175,,310,-322.5,-325,310,,790,110,M,Артем Туряниця,1991,Wraps,SBD
4,Evgen Rudnik,Pro O,105.4,220,-260,280,280,160,180,195,195,,240,280,300,300,,775,110,M,Євген Руднік,1978,Wraps,SBD
5,Vladimir Lukyanov,Pro O,104.5,-260,260,270,270,140,-145,145,145,,260,270,280,280,,695,110,M,,1966,Wraps,SBD
DQ,Maxym Potyomkin,Pro O,108.9,-310,-325,-335,,,,,,,,,,,,,110,M,Максим Потьомкін,1993,Wraps,SBD
1,Vladimir Lukyanov,Pro M2,104.5,-260,260,270,270,140,-145,145,145,,260,270,280,280,,695,110,M,,1966,Wraps,SBD
1,Volodymyr Gaydamaka,Pro O,112.35,250,265,-272.5,265,170,-180,-182.5,170,,270,-285,-285,270,,705,125,M,Володимир Гайдамака,1991,Wraps,SBD
1,Nazar Kozub,Pro O,136.25,275,-290,300,300,155,167.5,175,175,,-285,285,300,300,,775,140,M,Назар Козуб,1993,Wraps,SBD
DQ,Svitlana Latish,Am O,51.15,,,,,47.5,50,-55,50,,92.5,100,105,105,,,52,F,Світлана Латиш,1990,Raw,BD
DQ,Katerina Filipova,Am O,64.6,,,,,60,-67.5,-67.5,60,,115,125,-140,125,,,67.5,F,Катерина Філіпова,1984,Raw,BD
DQ,Ruslan Ivanchik,Am T3,65.35,,,,,115,-125,-125,115,,150,-160,,150,,,67.5,M,Руслан Іванчик,1999,Raw,BD
DQ,Oleksandr Pilipenko,Am J,79.2,,,,,115,122.5,-127.5,122.5,,180,190,-200,190,,,82.5,M,Олександр Пилипенко,1994,Raw,BD
DQ,Dmitro Smolinets,Am O,81.5,,,,,110,120,-125,120,,180,195,207.5,207.5,,,82.5,M,Дмитро Смолинець,1982,Raw,BD
DQ,Oleksandr Ostrovskiy,Am M3,80.8,,,,,85,95,,95,,150,-160,165,165,,,82.5,M,Олександр Островський,1953,Raw,BD
DQ,Yuriy Starkov,Am M4,81.95,,,,,100,105,110,110,,190,200,210,210,,,82.5,M,Юрій Старков,1947,Raw,BD
DQ,Oleksandr Kryachok,Am J,87.95,,,,,125,132.5,-140,132.5,,230,-262.5,-262.5,230,,,90,M,Олександр Крячок,1996,Raw,BD
DQ,Yaroslav Govyada,Am T1,94.3,,,,,90,100,-105,100,,190,200,-210,200,,,100,M,Ярослав Говяда,2003,Raw,BD
1,Mariya Brayko,Am T3,56.75,105,115,120,120,-35,37.5,42.5,42.5,,95,105,112.5,112.5,,275,60,F,Мария Брайко,1997,Single-ply,SBD
DQ,Volodimir Ivasyutin,Am J,74,-190,-190,-200,,,,,,,,,,,,,75,M,Володимир Івасютин,1995,Single-ply,SBD
1,Sergiy Rudoy,Pro O,105.05,250,-270,-270,250,170,180,-190,180,,230,240,-250,240,,670,110,M,Сергій Рудой,1986,Single-ply,SBD
1,Tetyana Onikienko,O,54.9,,,,,22.5,27.5,-30,27.5,,,,,,,27.5,56,F,Тетяна Оникієнко,1985,Raw,B
1,Nataliya Obraztsova,M1,55.6,,,,,25,27.5,30,30,,,,,,,30,56,F,Наталія Образцова,1973,Raw,B
1,Mariya Pavlenko,O,58.95,,,,,27.5,30,32.5,32.5,,,,,,,32.5,60,F,Марія Павленко,1986,Raw,B
1,Margarita Matyushenko,O,66.3,,,,,32.5,35,37.5,37.5,,,,,,,37.5,67.5,F,Маргарита Матюшенко,1984,Raw,B
2,Tetyana Vdovitsya,O,63.6,,,,,22.5,25,-30,25,,,,,,,25,67.5,F,Тетяна Вдовиця,1989,Raw,B
1,Andriy Novikov,T1,63.35,,,,,35,40,-45,40,,,,,,,40,67.5,M,Андрій Новіков,2001,Raw,B
1,Vadim Grishko,O,64.9,,,,,55,60,62.5,62.5,,,,,,,62.5,67.5,M,Вадим Гришко,1983,Raw,B
2,Oleksandr Krizhevskiy,O,63.48,,,,,45,-50,-50,45,,,,,,,45,67.5,M,Олександр Крижевський,1982,Raw,B
3,Sergiy Rogoviy,O,66.3,,,,,40,-55,-55,40,,,,,,,40,67.5,M,Сергій Роговий,1987,Raw,B
1,Ruslan Klimenko,T1,71.55,,,,,40,-45,45,45,,,,,,,45,75,M,Руслан Клименко,2002,Raw,B
1,Oleksiy Kotov,J,74.7,,,,,55,-62.5,62.5,62.5,,,,,,,62.5,75,M,Олексій Котов,1996,Raw,B
1,Oleksandr Simonenko,O,74.45,,,,,55,60,65,65,,,,,,,65,75,M,Олександр Симоненко,1992,Raw,B
2,Vitaliy Chornogor,O,70.25,,,,,60,-65,-65,60,,,,,,,60,75,M,Віталій Чорногор,1986,Raw,B
3,Oleksandr Andrienko,O,73.65,,,,,52.5,55,57.5,57.5,,,,,,,57.5,75,M,Олександр Андрієнко,1980,Raw,B
1,Vadim Gordov,M1,75,,,,,55,60,62.5,62.5,,,,,,,62.5,75,M,Вадим Гордов,1972,Raw,B
2,Evgen Sitnikov,M1,74.15,,,,,-52.5,52.5,60,60,,,,,,,60,75,M,Євген Ситніков,1973,Raw,B
1,Bogdan Illenko,T3,80.8,,,,,55,-62.5,62.5,62.5,,,,,,,62.5,82.5,M,Богдан Іллєнко,1997,Raw,B
1,Roman Nikolin,J,82.45,,,,,62.5,67.5,72.5,72.5,,,,,,,72.5,82.5,M,Роман Ніколін,1994,Raw,B
2,Andriy Martinevich,J,78.7,,,,,55,60,62.5,62.5,,,,,,,62.5,82.5,M,Андрій Мартиневич,1993,Raw,B
3,Rostislav Fortuna,J,81.45,,,,,35,47.5,55,55,,,,,,,55,82.5,M,Ростислав Фортуна,1996,Raw,B
1,Vitaliy Gladkiy,O,82.25,,,,,70,75,-80,75,,,,,,,75,82.5,M,Віталій Гладкий,1973,Raw,B
2,Vadim Sukhiy,O,79,,,,,62.5,65,67.5,67.5,,,,,,,67.5,82.5,M,Вадим Сухий,1991,Raw,B
3,Vitaliy Mazur,O,80.45,,,,,55,62.5,67.5,67.5,,,,,,,67.5,82.5,M,Віталій Мазур,1990,Raw,B
4,Viktor Borinets,O,82.45,,,,,67.5,-70,-70,67.5,,,,,,,67.5,82.5,M,Віктор Боринец,1989,Raw,B
5,Vitaliy Rakovskiy,O,78.5,,,,,60,-65,65,65,,,,,,,65,82.5,M,Віталій Раковський,1993,Raw,B
6,Pavlo Polegenkiy,O,77.7,,,,,-47.5,52.5,55,55,,,,,,,55,82.5,M,Павло Полегенький,1979,Raw,B
1,Vitaliy Gladkiy,M1,82.25,,,,,70,75,-80,75,,,,,,,75,82.5,M,Віталій Гладкий,1973,Raw,B
1,Vitaliy Shevchenko,T3,82.8,,,,,70,75,-77.5,75,,,,,,,75,90,M,Віталій Шевченко,1996,Raw,B
1,Vyacheslav Zgurovskyy,O,89.3,,,,,75,80,-82.5,80,,,,,,,80,90,M,В'ячеслав Згуровський,1985,Raw,B
2,Andriy Dannik,O,88.95,,,,,70,75,77.5,77.5,,,,,,,77.5,90,M,Андрій Данник,1987,Raw,B
3,V'yacheslav Kazantsev,O,88,,,,,50,62.5,70,70,,,,,,,70,90,M,В'ячеслав Казанцев,1988,Raw,B
4,Aleksandr Valivashenko,O,85.85,,,,,67.5,-75,-75,67.5,,,,,,,67.5,90,M,,1987,Raw,B
5,Stanislav Sheredko,O,89.9,,,,,62.5,65,67.5,67.5,,,,,,,67.5,90,M,Станіслав Шередько,1992,Raw,B
1,Mikola Guba,O,94,,,,,70,-75,-75,70,,,,,,,70,100,M,Микола Губа,1991,Raw,B
2,Vitaliy Seredyuk,O,97.4,,,,,50,55,60,60,,,,,,,60,100,M,Віталій Середюк,1990,Raw,B
3,Maksim Kostenko,O,92.2,,,,,55,-57.5,-57.5,55,,,,,,,55,100,M,Максим Костенко,1991,Raw,B
1,Oleksandr Bayda,O,106,,,,,65,70,75,75,,,,,,,75,110,M,Олександр Байда,1982,Raw,B
1,Denis Alekseenko,O,120.15,,,,,50,60,-70,60,,,,,,,60,125,M,Денис Алексеєнко,1993,Raw,B
1,Anatoliy Gavrish,M1,114.85,,,,,45,50,55,55,,,,,,,55,125,M,Анатолій Гавриш,1973,Raw,B
1,Oksana Usatyuk,Am O,43.75,,,,,50,52.5,-55,52.5,,,,,,,52.5,44,F,Оксана Усатюк,1993,Raw,B
1,Anna Tarasenko,Am O,48,,,,,65,-70,-70,65,,,,,,,65,48,F,Анна Тарасенко,1989,Raw,B
1,Irina Dichenko,Am J,50.05,,,,,-75,75,-77.5,75,,,,,,,75,52,F,Ірина Диченко,1996,Raw,B
1,Irina Dichenko,Am O,50.05,,,,,-75,75,-77.5,75,,,,,,,75,52,F,Ірина Диченко,1996,Raw,B
2,Irina Karasenko,Am O,51.4,,,,,62.5,-67.5,-67.5,62.5,,,,,,,62.5,52,F,Ірина Карасенко,1986,Raw,B
1,Irina Usik,Am T3,54.6,,,,,70,72.5,75,75,,,,,,,75,56,F,Ірина Усик,1998,Raw,B
1,Oleksandra Astakhova,Am O,53.85,,,,,65,70,-72.5,70,,,,,,,70,56,F,Олександра Астахова,1990,Raw,B
2,Kseniya Pleva,Am O,55.6,,,,,57.5,-62.5,62.5,62.5,,,,,,,62.5,56,F,Ксенія Плєва,1978,Raw,B
3,Nataliya Firsova,Am O,54.65,,,,,50,-55,55,55,,,,,,,55,56,F,Наталія Фірсова,1966,Raw,B
1,Nataliya Firsova,Am M2,54.65,,,,,50,-55,55,55,,,,,,,55,56,F,Наталія Фірсова,1966,Raw,B
1,Renata Ignatova,Am T1,59.8,,,,,42.5,-45,45,45,47.5,,,,,,45,60,F,Рената Ігнатова,2004,Raw,B
DQ,Margarita Molyaka,Am J,60,,,,,-62.5,-62.5,-62.5,,,,,,,,,60,F,Маргарита Моляка,1994,Raw,B
1,Nataliya Sokurenko,Am O,59.5,,,,,70,75,77.5,77.5,,,,,,,77.5,60,F,Наталія Сокуренко,1981,Raw,B
2,Oksana Ostroushko,Am O,57.75,,,,,57.5,60,62.5,62.5,,,,,,,62.5,60,F,Оксана Остроушко,1982,Raw,B
1,Nadiya Tischenko,Am O,65.8,,,,,102.5,-105,-105,102.5,,,,,,,102.5,67.5,F,Надія Тищенко,1993,Raw,B
2,Mariya Kalistratova,Am O,66.3,,,,,67.7,-72.5,-75,67.7,,,,,,,67.7,67.5,F,,1991,Raw,B
3,Katerina Filipova,Am O,64.6,,,,,60,-67.5,-67.5,60,,,,,,,60,67.5,F,Катерина Філіпова,1984,Raw,B
1,Zhaneta Shostak,Am M1,62.85,,,,,40,42.5,-45,42.5,,,,,,,42.5,67.5,F,Жанета Шостак,1972,Raw,B
1,Liliana Katsalap,Am O,69.05,,,,,55,65,70,70,,,,,,,70,75,F,Ліліана Кацалап,1992,Raw,B
1,Andriy Sitnikov,Am T1,50.25,,,,,47.5,50,-52.5,50,,,,,,,50,52,M,Андрій Ситніков,2003,Raw,B
1,Vladislav Tsivina,Am T1,55.85,,,,,55,60,62.5,62.5,,,,,,,62.5,56,M,Владислав Цівина,2004,Raw,B
1,Vitaliy Churuta,Am O,55,,,,,95,-102.5,-102.5,95,,,,,,,95,56,M,Віталій Чурута,1992,Raw,B
1,Vitaliy Evtushok,Am O,57.35,,,,,100,112.5,115,115,,,,,,,115,60,M,Віталій Євтушок,1993,Raw,B
1,Artem Kovtun,Am T1,66.45,,,,,-92.5,100,107.5,107.5,,,,,,,107.5,67.5,M,Артем Ковтун,2001,Raw,B
1,Ruslan Ivanchik,Am T3,65.35,,,,,115,-125,-125,115,,,,,,,115,67.5,M,Руслан Іванчик,1999,Raw,B
1,Andriy Kurachov,Am J,67.15,,,,,100,107.5,110,110,,,,,,,110,67.5,M,Андрій Курачов,1996,Raw,B
1,Vitaliy Pavlushko,Am O,60.85,,,,,125,132.5,-137.5,132.5,,,,,,,132.5,67.5,M,Віталій Павлушко,1985,Raw,B
2,Sergiy Rogoviy,Am O,66.3,,,,,100,-105,-105,100,,,,,,,100,67.5,M,Сергій Роговий,1987,Raw,B
DQ,Mikola Slyusarenko,Am O,67.5,,,,,-115,-120,-120,,,,,,,,,67.5,M,Микола Слюсаренко,1986,Raw,B
1,Ruslan Klimenko,Am T1,71.55,,,,,-57.5,-57.5,60,60,,,,,,,60,75,M,Руслан Клименко,2002,Raw,B
1,Volodimir Reshetnyak,Am T3,72.7,,,,,127.5,135,140,140,,,,,,,140,75,M,Володимир Решетняк,1998,Raw,B
2,Nikita Tishkevich,Am T3,70.45,,,,,125,132.5,-137.5,132.5,,,,,,,132.5,75,M,Нікіта Тишкевич,1998,Raw,B
1,Yevgen Boloban,Am J,73.35,,,,,170,180,-186,180,,,,,,,180,75,M,Євген Болобан,1996,Raw,B
2,Oleg Zhuchkov,Am J,74.5,,,,,125,-130,130,130,,,,,,,130,75,M,Олег Жучков,1994,Raw,B
3,Evgen Sokolenko,Am J,75,,,,,120,125,-132.5,125,,,,,,,125,75,M,Євген Соколенко,1997,Raw,B
4,Pavlo Belka,Am J,73.2,,,,,112.5,-117.5,-117.5,112.5,,,,,,,112.5,75,M,Павло Бєлка,1994,Raw,B
1,Yevgen Boloban,Am O,73.35,,,,,170,180,-186,180,,,,,,,180,75,M,Євген Болобан,1996,Raw,B
2,Andriy Yatskov,Am O,74.3,,,,,135,142.5,-150,142.5,,,,,,,142.5,75,M,Андрій Яцков,1993,Raw,B
3,Oleg Zagrebelniy,Am O,74.15,,,,,125,135,-140,135,,,,,,,135,75,M,Олег Загребельний,1988,Raw,B
4,Vitaliy Zaets,Am O,71.85,,,,,130,-135,-135,130,,,,,,,130,75,M,Віталій Заєць,1992,Raw,B
5,Igor Cherkas,Am O,72.8,,,,,-125,-125,125,125,,,,,,,125,75,M,Ігор Черкас,1986,Raw,B
6,Igor Kotsolko,Am O,71.35,,,,,110,117.5,-125,117.5,,,,,,,117.5,75,M,Ігор Коцьолко,1988,Raw,B
DQ,Mikhaylo Vervega,Am O,73.5,,,,,-130,-135,-135,,,,,,,,,75,M,Михайло Вервега,1988,Raw,B
1,Albert Izotkov,Am M1,74.25,,,,,105,110,115,115,,,,,,,115,75,M,Альберт Ізотков,1971,Raw,B
DQ,Oleg Zon,Am T2,75.65,,,,,-115,-127.5,-127.5,,,,,,,,,82.5,M,Олег Зонь,2000,Raw,B
1,Volodimir Getman,Am J,80.95,,,,,145,150,152.5,152.5,,,,,,,152.5,82.5,M,Володимир Гетьман,1995,Raw,B
2,Rostislav Fortuna,Am J,81.45,,,,,140,-145,145,145,,,,,,,145,82.5,M,Ростислав Фортуна,1996,Raw,B
3,Oleksandr Pilipenko,Am J,79.2,,,,,115,122.5,-127.5,122.5,,,,,,,122.5,82.5,M,Олександр Пилипенко,1994,Raw,B
DQ,Roman Nikolin,Am J,82.45,,,,,-160,-160,-160,,,,,,,,,82.5,M,Роман Ніколін,1994,Raw,B
1,Viktor Borinets,Am O,82.45,,,,,170,175,177.5,177.5,,,,,,,177.5,82.5,M,Віктор Боринец,1989,Raw,B
2,Volodymyr Lagoda,Am O,81.2,,,,,160,-167.5,-167.5,160,,,,,,,160,82.5,M,Володимир Лагода,1968,Raw,B
3,Andriy Kultishev,Am O,78.75,,,,,145,150,-160,150,,,,,,,150,82.5,M,Андрій Култишев,1988,Raw,B
4,Oleksandr Gora,Am O,81.2,,,,,140,145,-147.5,145,,,,,,,145,82.5,M,Олександр Гора,1987,Raw,B
5,Igor Artyukh,Am O,80.95,,,,,-130,-135,135,135,,,,,,,135,82.5,M,Игорь Артюх,1991,Raw,B
6,Viktor Ignatenko,Am O,81.25,,,,,122.5,127.5,-130,127.5,,,,,,,127.5,82.5,M,Віктор Ігнатенко,1993,Raw,B
7,Anton Palyanichko,Am O,77.9,,,,,45,50,52.5,52.5,,,,,,,52.5,82.5,M,Антон Паляничко,1984,Raw,B
DQ,Oleksandr Snegurskiy,Am O,76.8,,,,,-140,-140,-140,,,,,,,,,82.5,M,Олександр Снегурський,1990,Raw,B
DQ,Denis Esin,Am O,80.9,,,,,-135,-140,-145,,,,,,,,,82.5,M,Денис Єсін,1985,Raw,B
DQ,Bogdan Seredinskiy,Am O,82,,,,,-120,-120,-120,,,,,,,,,82.5,M,Богдан Серединський,1991,Raw,B
DQ,Roman Nikolin,Am O,82.45,,,,,-160,-160,-160,,,,,,,,,82.5,M,Роман Ніколін,1994,Raw,B
1,Volodymyr Lagoda,Am M1,81.2,,,,,160,-167.5,-167.5,160,,,,,,,160,82.5,M,Володимир Лагода,1968,Raw,B
1,Viktor Polovko,Am M2,80.4,,,,,105,-112.5,-115,105,,,,,,,105,82.5,M,Віктор Половко,1964,Raw,B
1,Oleksandr Ostrovskiy,Am M3,82.5,,,,,85,95,,95,,,,,,,95,82.5,M,Олександр Островський,1953,Raw,B
1,Yuriy Starkov,Am M4,81.95,,,,,100,105,110,110,,,,,,,110,82.5,M,Юрій Старков,1947,Raw,B
1,Kirilo Omelchenko,Am T1,87.4,,,,,95,-100,-100,95,,,,,,,95,90,M,Кирило Омельченко,2002,Raw,B
1,Vladlen Krivov,Am J,89.35,,,,,145,150,-152.5,150,,,,,,,150,90,M,Владлен Кривов,1996,Raw,B
2,Mikola Gorbatko,Am J,89.7,,,,,135,140,-142.5,140,,,,,,,140,90,M,Микола Горбатко,1993,Raw,B
3,Oleksandr Kryachok,Am J,87.95,,,,,125,132.5,-140,132.5,,,,,,,132.5,90,M,Олександр Крячок,1996,Raw,B
4,Oleksandr Kinash,Am J,84.5,,,,,110,-120,-120,110,,,,,,,110,90,M,Олександр Кінаш,1996,Raw,B
1,Artem Shitiy,Am O,89.3,,,,,170,-180,-180,170,,,,,,,170,90,M,Артем Шитий,1992,Raw,B
2,V'yacheslav Kazantsev,Am O,88,,,,,152.5,160,165,165,,,,,,,165,90,M,В'ячеслав Казанцев,1988,Raw,B
3,Evgen Levkovskiy,Am O,88.45,,,,,152.5,-160,-160,152.5,,,,,,,152.5,90,M,Євген Левковський,1990,Raw,B
4,Andriy Nesterenko,Am O,85,,,,,-147.5,147.5,-152.5,147.5,,,,,,,147.5,90,M,Андрій Нестеренко,1984,Raw,B
5,Oleksandr Klimenko,Am O,88.15,,,,,140,145,-150,145,,,,,,,145,90,M,Олександр Кліменко,1991,Raw,B
6,Oleg Murga,Am O,89.95,,,,,-122.5,122.5,127.5,127.5,,,,,,,127.5,90,M,Олег Мурга,1991,Raw,B
7,Stanislav Sheredko,Am O,89.9,,,,,120,-125,125,125,,,,,,,125,90,M,Станіслав Шередько,1992,Raw,B
DQ,Andriy Alferov,Am O,89.4,,,,,-145,-152.5,-152.5,,,,,,,,,90,M,Андрій Алферов,1991,Raw,B
DQ,Dmitro Bilik,Am O,87.95,,,,,-140,-145,-145,,,,,,,,,90,M,Дмитро Білик,1991,Raw,B
1,Sergiy Zolkin,Am M1,88.25,,,,,120,125,-130,125,,,,,,,125,90,M,Сергій Золкін,1970,Raw,B
DQ,Volodimir Sereda,Am M1,87.65,,,,,-120,-120,-120,,,,,,,,,90,M,Володимир Середа,1974,Raw,B
DQ,Aleksandr Denisov,Am M1,88.35,,,,,-140,-140,-140,,,,,,,,,90,M,Александр Денисов,1972,Raw,B
1,Yuriy Digtyar,Am M2,85.85,,,,,127.5,132.5,-135,132.5,,,,,,,132.5,90,M,Юрій Дігтяр,1962,Raw,B
2,Igor Plotnikov,Am M2,89.5,,,,,110,-120,-120,110,,,,,,,110,90,M,Ігор Плотніков,1966,Raw,B
1,Yaroslav Govyada,Am T1,94.3,,,,,90,100,-105,100,,,,,,,100,100,M,Ярослав Говяда,2003,Raw,B
1,Roman Aleksandrov,Am J,96.85,,,,,-155,157.5,-162.5,157.5,,,,,,,157.5,100,M,Роман Александров,1993,Raw,B
2,Vitaliy Balandin,Am J,96.6,,,,,150,155,-160,155,,,,,,,155,100,M,Віталій Баландін,1995,Raw,B
3,Ivan Shtolts,Am J,98.6,,,,,-135,140,145,145,,,,,,,145,100,M,Іван Штольц,1994,Raw,B
DQ,Ivan Khudobenko,Am J,98.7,,,,,-175,-175,-175,,,,,,,,,100,M,Іван Худобенко,1996,Raw,B
1,Andrii Petruk,Am O,97.7,,,,,180,185,-190,185,,,,,,,185,100,M,Андрій Петрук,1975,Raw,B
2,Vyacheslav Sopin,Am O,97.35,,,,,160,170,-175,170,,,,,,,170,100,M,В'ячеслав Сопін,1988,Raw,B
3,Vitaliy Alpinskiy,Am O,97.8,,,,,160,-165,165,165,,,,,,,165,100,M,Віталій Альпінський,1985,Raw,B
4,Oleg Goryunov,Am O,97.9,,,,,165,-172.5,-175,165,,,,,,,165,100,M,Олег Горюнов,1985,Raw,B
5,Anatoliy Khomenchuk,Am O,98.7,,,,,-142.5,152.5,-162.5,152.5,,,,,,,152.5,100,M,Анатолій Хоменчук,1991,Raw,B
DQ,Evgen Kondratenko,Am O,98.7,,,,,-155,-155,-155,,,,,,,,,100,M,Євген Кондратенко,1984,Raw,B
DQ,Ivan Khudobenko,Am O,98.7,,,,,-175,-175,-175,,,,,,,,,100,M,Іван Худобенко,1996,Raw,B
1,Andrii Petruk,Am M1,97.7,,,,,180,185,-190,185,,,,,,,185,100,M,Андрій Петрук,1975,Raw,B
2,Igor Krikunov,Am M1,98.95,,,,,145,-155,-155,145,,,,,,,145,100,M,Ігор Крикунов,1968,Raw,B
1,Bogdan Voytyuk,Am J,104.1,,,,,170,172.5,-177.5,172.5,,,,,,,172.5,110,M,Богдан Войтюк,1995,Raw,B
2,Oleksandr Telnikh,Am J,108.1,,,,,155,167.5,-172.5,167.5,,,,,,,167.5,110,M,Олександр Тельних,1994,Raw,B
1,Sergiy Dromov,Am O,109.5,,,,,-190,200,205,205,,,,,,,205,110,M,Сергій Дрьомов,1968,Raw,B
2,Sergiy Radchenko,Am O,104.55,,,,,160,-167.5,-167.5,160,,,,,,,160,110,M,Сергій Радченко,1989,Raw,B
1,Sergiy Dromov,Am M1,109.5,,,,,-190,200,205,205,,,,,,,205,110,M,Сергій Дрьомов,1968,Raw,B
2,Ustim Antonenko,Am M1,105.3,,,,,170,-180,-180,170,,,,,,,170,110,M,Устим Антоненко,1972,Raw,B
1,Volodimir Kolomiets,Am M2,102.9,,,,,125,135,140,140,,,,,,,140,110,M,Володимир Коломієц,1966,Raw,B
1,Viktor Stefanov,Am M3,102.7,,,,,90,100,105,105,,,,,,,105,110,M,Віктор Стефанов,1948,Raw,B
1,Igor Zaychuk,Am O,115.3,,,,,192.5,200,205,205,,,,,,,205,125,M,Ігор Зайчук,1989,Raw,B
2,Evgen Lavrik,Am O,121.45,,,,,175,-185,-185,175,,,,,,,175,125,M,Євген Лаврик,1973,Raw,B
1,Evgen Lavrik,Am M1,121.45,,,,,175,-185,-185,175,,,,,,,175,125,M,Євген Лаврик,1973,Raw,B
DQ,Oleksandr Stopich,Am O,139.4,,,,,-182.5,-182.5,-182.5,,,,,,,,,140,M,Олександр Стьопич,1988,Raw,B
DQ,Boris Pinda,Am M2,130.9,,,,,-130,-130,-130,,,,,,,,,140,M,Борис Пинда,1964,Raw,B
1,Mikhaylo Gluschenko,Pro J,58.3,,,,,-130,135,-140,135,,,,,,,135,60,M,Михайло Глущенко,1996,Raw,B
1,Mikhaylo Gluschenko,Pro O,58.3,,,,,-130,135,-140,135,,,,,,,135,60,M,Михайло Глущенко,1996,Raw,B
1,Oleksandr Zhariy,Pro M1,62.3,,,,,115,120,122.5,122.5,,,,,,,122.5,67.5,M,Олександр Жарий,1972,Raw,B
1,Andriy Martinevich,Pro J,78.7,,,,,130,-142.5,-142.5,130,,,,,,,130,82.5,M,Андрій Мартиневич,1993,Raw,B
1,Vadim Marinich,Pro O,82,,,,,175,-185,-185,175,,,,,,,175,82.5,M,Вадим Маринич,1981,Raw,B
1,Oleg Zavolovich,Pro M1,78.9,,,,,155,,,155,,,,,,,155,82.5,M,Олег Заволович,1976,Raw,B
1,Oleksiy Bronishevskiy,Pro O,85.35,,,,,-195,195,200,200,,,,,,,200,90,M,Олексій Бронішевський,1988,Raw,B
2,Aleksandr Valivashenko,Pro O,85.85,,,,,192.5,-197.5,197.5,197.5,,,,,,,197.5,90,M,,1987,Raw,B
3,Yaroslav Podvorchanskiy,Pro O,87.1,,,,,190,-195,-197.5,190,,,,,,,190,90,M,Ярослав Подворчанський,1991,Raw,B
1,Sergiy Plotnikov,Pro J,97.6,,,,,160,172.5,177.5,177.5,,,,,,,177.5,100,M,Сергій Плотніков,1995,Raw,B
1,Denis Bunchuk,Pro O,94.1,,,,,227.5,235,240,240,,,,,,,240,100,M,Денис Бунчук,1989,Raw,B
2,Igor Danilov,Pro O,99.6,,,,,200,-210,210,210,,,,,,,210,100,M,Игорь Данилов,1985,Raw,B
3,Andrey Zemlyakov,Pro O,97.3,,,,,160,172.5,177.5,177.5,,,,,,,177.5,100,M,,1991,Raw,B
4,Sergiy Plotnikov,Pro O,97.6,,,,,160,172.5,177.5,177.5,,,,,,,177.5,100,M,Сергій Плотніков,1995,Raw,B
1,Mikola Rubik,Pro M1,96,,,,,150,-157.5,157.5,157.5,,,,,,,157.5,100,M,Микола Рубік,1972,Raw,B
DQ,Andriy Suprun,Pro M1,90.25,,,,,-160,-160,-160,,,,,,,,,100,M,Андрій Супрун,1971,Raw,B
DQ,Vitaliy Kostyuk,Pro M2,92.55,,,,,-125,-125,,,,,,,,,,100,M,Віталій Костюк,1964,Raw,B
1,Olexiy Kryvchykov,Pro M3,94.8,,,,,115,120,-125,120,,,,,,,120,100,M,Олексій Кривчиков,1948,Raw,B
1,Maxym Potyomkin,Pro O,108.9,,,,,230,240,-245,240,,,,,,,240,110,M,Максим Потьомкін,1993,Raw,B
2,Andriy Romanko,Pro O,100.6,,,,,210,220,-225,220,,,,,,,220,110,M,Андрій Романко,1975,Raw,B
1,Andriy Romanko,Pro M1,100.6,,,,,210,220,-225,220,,,,,,,220,110,M,Андрій Романко,1975,Raw,B
1,Vladimir Lukyanov,Pro M2,104.5,,,,,140,-145,145,145,,,,,,,145,110,M,,1966,Raw,B
1,Oleksandr Neshkurenko,Pro O,120.6,,,,,-195,200,-205,200,,,,,,,200,125,M,Олександр Нешкуренко,1985,Raw,B
2,Bogdan Kharakhash,Pro O,114.95,,,,,190,-200,-200,190,,,,,,,190,125,M,Богдан Харахаш,1974,Raw,B
3,Valentin Kazmirenko,Pro O,110.45,,,,,170,-180,180,180,,,,,,,180,125,M,Валентин Казьміренко,1991,Raw,B
1,Bogdan Kharakhash,Pro M1,114.94,,,,,190,-200,-200,190,,,,,,,190,125,M,Богдан Харахаш,1974,Raw,B
1,Mikhaylo Schegolev,Pro O,125.25,,,,,170,180,-185,180,,,,,,,180,140,M,Михайло Щеголєв,1986,Raw,B
1,Dmytro Gosman,Am O,121.6,,,,,240,-250,-250,240,,,,,,,240,125,M,Дмитро Госман,1993,Single-ply,B
1,Kostyantin Chernov,Pro O,88.2,,,,,-240,250,-270,250,,,,,,,250,90,M,Костянтин Чернов,1984,Single-ply,B
1,Yuriy Kostenko,Pro O,99.95,,,,,190,-202.5,-202.5,190,,,,,,,190,100,M,Юрій Костенко,1971,Single-ply,B
1,Yuriy Kostenko,Pro M1,99.95,,,,,190,-202.5,-202.5,190,,,,,,,190,100,M,Юрій Костенко,1971,Single-ply,B
1,Tetyana Korostel,Am T1,28.2,,,,,,,,,,40,45,50,50,,50,44,F,Тетяна Коростель,2007,Raw,D
1,Oksana Usatyuk,Am O,43.75,,,,,,,,,,85,-95,95,95,,95,44,F,Оксана Усатюк,1993,Raw,D
1,Yuliya Ribalchenko,Am O,50,,,,,,,,,,85,87.5,90,90,,90,52,F,Юлія Рибальченко,1983,Raw,D
DQ,Evgeniya Shevchuk,Am O,49.65,,,,,,,,,,-90,-90,,,,,52,F,Євгенія Шевчук,1982,Raw,D
1,Anna Ponomarenko,Am J,54.55,,,,,,,,,,90,-95,-95,90,,90,56,F,Анна Пономаренко,1996,Raw,D
1,Oleksandra Astakhova,Am O,53.85,,,,,,,,,,120,-130,135,135,,135,56,F,Олександра Астахова,1990,Raw,D
2,Olesya Kiyan,Am O,55.5,,,,,,,,,,115,120,-125,120,,120,56,F,Олеся Киян,1990,Raw,D
3,Tetyana Stronska,Am O,55.55,,,,,,,,,,100,110,112.5,112.5,,112.5,56,F,Тетяна Стронська,1984,Raw,D
4,Lyudmila Mutovkina,Am O,55.05,,,,,,,,,,87.5,92.5,95,95,,95,56,F,Людмила Мутовкіна,1981,Raw,D
1,Margarita Molyaka,Am J,60,,,,,,,,,,-92.5,92.5,102.5,102.5,,102.5,60,F,Маргарита Моляка,1994,Raw,D
1,Nataliya Sokurenko,Am O,59.5,,,,,,,,,,130,135,142.5,142.5,,142.5,60,F,Наталія Сокуренко,1981,Raw,D
2,Mariya Pavlenko,Am O,58.95,,,,,,,,,,102.5,115,120,120,,120,60,F,Марія Павленко,1986,Raw,D
3,Tetyana Komarova,Am O,59,,,,,,,,,,110,112.5,117.5,117.5,,117.5,60,F,Тетяна Комарова,1987,Raw,D
1,Polina Yakimets,Am J,66.3,,,,,,,,,,110,122.5,130,130,140,130,67.5,F,Поліна Якимець,1994,Raw,D
2,Mariya Kalistratova,Am O,66.3,,,,,,,,,,135,-140,-140,135,,135,67.5,F,,1991,Raw,D
1,Katerina Filipova,Am O,64.6,,,,,,,,,,115,125,-140,125,,125,67.5,F,Катерина Філіпова,1984,Raw,D
3,Liliana Katsalap,Am O,69.05,,,,,,,,,,100,115,-122.5,115,,115,75,F,Ліліана Кацалап,1992,Raw,D
1,Olga Tyutyunik,Am O,110.2,,,,,,,,,,130,137.5,142.5,142.5,,142.5,90+,F,Ольга Тютюник,1988,Raw,D
1,Ruslan Lupina,Am T1,30.65,,,,,,,,,,40,45,50,50,,50,52,M,Руслан Лупина,2007,Raw,D
1,Bogdan Tsatsuk,Am T3,57.2,,,,,,,,,,-165,165,-167.5,165,,165,60,M,Богдан Цацук,1998,Raw,D
1,Oleksiy Bibik,Am O,59.2,,,,,,,,,,155,160,175,175,181,175,60,M,Олексій Бибик,1989,Raw,D
1,Denis Mikulskiy,Am T1,67.5,,,,,,,,,,122.5,132.5,-142.5,132.5,,132.5,67.5,M,Денис Микульський,2004,Raw,D
1,Artur Ivaschenko,Am T2,62.35,,,,,,,,,,180,190,-200,190,,190,67.5,M,Артур Іващенко,2000,Raw,D
2,Stanislav Tsivina,Am T2,66.85,,,,,,,,,,130,140,-160,140,,140,67.5,M,Станіслав Цівина,2000,Raw,D
1,Ruslan Ivanchik,Am T3,65.35,,,,,,,,,,150,-160,,150,,150,67.5,M,Руслан Іванчик,1999,Raw,D
1,Stanislav Sinyagivskiy,Am J,67.5,,,,,,,,,,200,-215,-215,200,,200,67.5,M,Станіслав Синягівський,1995,Raw,D
2,Andriy Kurachov,Am J,67.15,,,,,,,,,,170,190,-200,190,,190,67.5,M,Андрій Курачов,1996,Raw,D
1,Sergiy Kalchuk,Am O,65.15,,,,,,,,,,160,170,-180,170,,170,67.5,M,Сергій Кальчук,1989,Raw,D
2,Stanislav Tsivina,Am O,66.85,,,,,,,,,,130,140,-160,140,,140,67.5,M,Станіслав Цівина,2000,Raw,D
3,Sergiy Rogoviy,Am O,66.3,,,,,,,,,,-130,-130,130,130,,130,67.5,M,Сергій Роговий,1987,Raw,D
1,Ivan Yur'ev,Am T3,72.6,,,,,,,,,,140,-150,160,160,,160,75,M,Іван Юр'єв,1998,Raw,D
1,Oleg Zhuchkov,Am J,74.5,,,,,,,,,,240,250,260,260,270,260,75,M,Олег Жучков,1994,Raw,D
2,Sergiy Fastov,Am J,75,,,,,,,,,,210,225,237.5,237.5,,237.5,75,M,Сергій Фастов,1994,Raw,D
3,Oleksiy Kotov,Am J,74.7,,,,,,,,,,160,175,-182.5,175,,175,75,M,Олексій Котов,1996,Raw,D
1,Valentin Gontar,Am O,74.15,,,,,,,,,,235,240,-250,240,,240,75,M,Валентин Гонтар,1987,Raw,D
2,Dmitro Bachmanyuk,Am O,72.5,,,,,,,,,,185,195,-207.5,195,,195,75,M,Дмитро Бачманюк,1991,Raw,D
1,Aleksandr Pashkovets,Am J,79.9,,,,,,,,,,225,-232.5,-235,225,,225,82.5,M,Александр Пашковец,1997,Raw,D
2,Volodimir Galiga,Am J,80.6,,,,,,,,,,200,220,225,225,,225,82.5,M,Володимир Галига,1997,Raw,D
3,Oleg Litvinenko,Am J,80.25,,,,,,,,,,190,215,-227.5,215,,215,82.5,M,Олег Литвиненко,1995,Raw,D
4,Vladimir Duma,Am J,80.1,,,,,,,,,,185,-200,200,200,,200,82.5,M,Владимир Дума,1994,Raw,D
5,Andriy Ostapchuk,Am J,82.5,,,,,,,,,,200,-210,-220,200,,200,82.5,M,Андрій Остапчук,1994,Raw,D
6,Oleksandr Pilipenko,Am J,79.2,,,,,,,,,,180,190,-200,190,,190,82.5,M,Олександр Пилипенко,1994,Raw,D
1,Dmitro Shpachinskiy,Am O,81.8,,,,,,,,,,220,-230,-230,220,,220,82.5,M,Дмитро Шпачинський,1991,Raw,D
2,Oleg Litvinenko,Am O,80.25,,,,,,,,,,190,215,-227.5,215,,215,82.5,M,Олег Литвиненко,1995,Raw,D
3,Dmitro Smolinets,Am O,81.5,,,,,,,,,,180,195,207.5,207.5,,207.5,82.5,M,Дмитро Смолинець,1982,Raw,D
4,Oleksandr Snegurskiy,Am O,76.8,,,,,,,,,,180,-190,190,190,,190,82.5,M,Олександр Снегурський,1990,Raw,D
1,Volodimir Galeta,Am M2,80.7,,,,,,,,,,150,155,162.5,162.5,,162.5,82.5,M,Володимир Галета,1964,Raw,D
1,Oleksandr Ostrovskiy,Am M3,80.8,,,,,,,,,,150,-160,165,165,,165,82.5,M,Олександр Островський,1953,Raw,D
1,Yuriy Starkov,Am M4,81.95,,,,,,,,,,190,200,210,210,,210,82.5,M,Юрій Старков,1947,Raw,D
1,Dmitro Shapoval,Am T3,88.6,,,,,,,,,,245,260,270,270,,270,90,M,Дмитро Шаповал,1999,Raw,D
1,Oleksandr Kryachok,Am J,87.95,,,,,,,,,,230,-262.5,-262.5,230,,230,90,M,Олександр Крячок,1996,Raw,D
2,Oleksandr Kinash,Am J,84.5,,,,,,,,,,190,200,-210,200,,200,90,M,Олександр Кінаш,1996,Raw,D
1,Artem Shitiy,Am O,89.3,,,,,,,,,,250,260,270,270,,270,90,M,Артем Шитий,1992,Raw,D
2,Volodimir Koshel,Am O,88,,,,,,,,,,230,240,-252.5,240,,240,90,M,Володимир Кошель,1987,Raw,D
3,Evgen Levkovskiy,Am O,88.45,,,,,,,,,,220,-240,240,240,,240,90,M,Євген Левковський,1990,Raw,D
4,Oleksandr Volkov,Am O,86.6,,,,,,,,,,210,230,-235,230,,230,90,M,Олександр Волков,1990,Raw,D
5,Dmytro Dovbysh,Am O,86.45,,,,,,,,,,-215,215,-230,215,,215,90,M,Дмитро Довбиш,1988,Raw,D
DQ,Vitaliy Markiv,Am O,87.05,,,,,,,,,,-257.5,-257.5,-257.5,,,,90,M,Віталій Марків,1982,Raw,D
DQ,Volodimir Meshkov,Am O,89.35,,,,,,,,,,-230,-230,-230,,,,90,M,Володимир Мєшков,1983,Raw,D
1,Viktor Poshtarenko,Am M1,88.35,,,,,,,,,,210,225,231,231,,231,90,M,Віктор Поштаренко,1970,Raw,D
2,Oleksandr Drobilko,Am M1,86.55,,,,,,,,,,210,-215,-215,210,,210,90,M,Олександр Дробілко,1972,Raw,D
1,Gennadiy Ostrovskiy,Am M2,86.65,,,,,,,,,,200,202.5,212.5,212.5,,212.5,90,M,Геннадій Островський,1965,Raw,D
1,Yaroslav Govyada,Am T1,94.3,,,,,,,,,,190,200,-210,200,,200,100,M,Ярослав Говяда,2003,Raw,D
1,Ruslan Klokun,Am T2,99.7,,,,,,,,,,170,180,-200,180,,180,100,M,Руслан Клокун,2001,Raw,D
1,Vitaliy Balandin,Am J,96.6,,,,,,,,,,210,220,-230,220,,220,100,M,Віталій Баландін,1995,Raw,D
2,Ivan Shtolts,Am J,98.6,,,,,,,,,,180,200,210,210,,210,100,M,Іван Штольц,1994,Raw,D
1,Evgen Omelyanovskiy,Am O,99.15,,,,,,,,,,215,230,240,240,,240,100,M,Євген Омельяновський,1989,Raw,D
2,Vitaliy Seredyuk,Am O,97.4,,,,,,,,,,170,-220,225,225,,225,100,M,Віталій Середюк,1990,Raw,D
DQ,Maksim Gerasimenko,Am O,92.35,,,,,,,,,,-220,-230,-250,,,,100,M,Максим Герасименко,1985,Raw,D
1,Andriy Bronishevskiy,Am J,108.7,,,,,,,,,,240,255,280,280,,280,110,M,Андрій Бронішевський,1993,Raw,D
1,Andriy Bronishevskiy,Am O,108.7,,,,,,,,,,240,255,280,280,,280,110,M,Андрій Бронішевський,1993,Raw,D
2,Volodimir Oglobin,Am O,105.4,,,,,,,,,,275,-282.5,-282.5,275,,275,110,M,Володимир Оглобин,1965,Raw,D
3,Oleksandr Mikulenko,Am O,103.5,,,,,,,,,,222.5,240,-247.5,240,,240,110,M,Олександр Микуленко,1985,Raw,D
4,Artem Karpovich,Am O,106.7,,,,,,,,,,230,-247.5,-247.5,230,,230,110,M,Артем Карпович,1993,Raw,D
5,Ivan Khaschevatskiy,Am O,102.8,,,,,,,,,,200,215,-225,215,,215,110,M,Іван Хащевацький,1992,Raw,D
1,Igor Onischak,Am M1,105.35,,,,,,,,,,215,235,240,240,,240,110,M,Ігор Онищак,1973,Raw,D
2,Anatoliy Kirkish,Am M1,106.1,,,,,,,,,,-200,200,215,215,,215,110,M,Анатолій Кіркіш,1976,Raw,D
1,Volodymyr Ogloblin,Am M2,105.4,,,,,,,,,,275,-282.5,-282.5,275,,275,110,M,Володимир Оглоблін,1965,Raw,D
2,Volodimir Kolomiets,Am M2,102.9,,,,,,,,,,200,210,215,215,,215,110,M,Володимир Коломієц,1966,Raw,D
1,Viktor Stefanov,Am M3,102.7,,,,,,,,,,160,167.5,,167.5,,167.5,110,M,Віктор Стефанов,1948,Raw,D
1,Igor Zaychuk,Am O,115.3,,,,,,,,,,285,-305,315,315,,315,125,M,Ігор Зайчук,1989,Raw,D
2,Oleg Piskun,Am O,112.5,,,,,,,,,,202.5,217.5,227.5,227.5,,227.5,125,M,Олег Піскун,1962,Raw,D
1,Oleg Piskun,Am M2,112.5,,,,,,,,,,202.5,217.5,227.5,227.5,,227.5,125,M,Олег Піскун,1962,Raw,D
1,Oles Petrenko,Am T2,129.6,,,,,,,,,,180,190,-200,190,,190,140,M,Олесь Петренко,2000,Raw,D
1,Grigoriy Barannik,Am O,126.4,,,,,,,,,,230,240,250,250,,250,140,M,Григорій Бараннік,1990,Raw,D
1,Oleksandr Trondyuk,Pro J,73.55,,,,,,,,,,220,-250,,220,,220,75,M,Олександр Трондюк,1995,Raw,D
1,Oleksandr Trondyuk,Pro O,73.55,,,,,,,,,,220,-250,,220,,220,75,M,Олександр Трондюк,1995,Raw,D
1,Andriy Martinevich,Pro J,78.7,,,,,,,,,,220,-230,-230,220,,220,82.5,M,Андрій Мартиневич,1993,Raw,D
1,Arkadiy Shalokha,Pro O,82.5,,,,,,,,,,285,300,-310,300,,300,82.5,M,Аркадий Шалоха,1983,Raw,D
1,Artem Ivanov,Pro O,89.5,,,,,,,,,,235,260,-270,260,,260,90,M,Артем Иванов,1992,Raw,D
1,Sergiy Plotnikov,Pro J,97.6,,,,,,,,,,230,245,260,260,,260,100,M,Сергій Плотніков,1995,Raw,D
1,Sergiy Plotnikov,Pro O,97.6,,,,,,,,,,230,245,260,260,,260,100,M,Сергій Плотніков,1995,Raw,D
1,Maxym Potyomkin,Pro O,108.9,,,,,,,,,,310,-325,340,340,,340,110,M,Максим Потьомкін,1993,Raw,D
3,Jorge-Seidu Tologa,Pro O,103.4,,,,,,,,,,305,315,-320,315,,315,110,M,Жорж-Сейду Толога,1989,Raw,D
2,Artem Turyanitsya,Pro O,100.3,,,,,,,,,,310,-322.5,-325,310,,310,110,M,Артем Туряниця,1991,Raw,D
4,Maksim Ribalka,Pro O,108.9,,,,,,,,,,300,-307.5,310,310,,310,110,M,Максим Рибалка,1993,Raw,D
5,Oleksandr Bayda,Pro O,106,,,,,,,,,,270,280,290,290,,290,110,M,Олександр Байда,1982,Raw,D
1,Vladimir Lukyanov,Pro M2,104.5,,,,,,,,,,260,270,280,280,,280,110,M,,1966,Raw,D
1,Oleksandr Neshkurenko,Pro O,120.6,,,,,,,,,,280,-290,-290,280,,280,125,M,Олександр Нешкуренко,1985,Raw,D
1,Nazar Kozub,Pro O,136.25,,,,,,,,,,-285,285,300,300,,300,140,M,Назар Козуб,1993,Raw,D
1,Volodimir Ivasyutin,Am J,74,,,,,,,,,,180,195,-217.5,195,,195,75,M,Володимир Івасютин,1995,Single-ply,D
1,Ruslan Timoshenko,Am O,89.45,,,,,,,,,,-265,265,270,270,,270,90,M,Руслан Тимошенко,1990,Single-ply,D
1,Andriy Romanchuk,Pro O,103,,,,,,,,,,250,265,280,280,,280,110,M,Андрій Романчук,1976,Single-ply,D
1,Andriy Romanchuk,Pro M1,103,,,,,,,,,,250,265,280,280,,280,110,M,Андрій Романчук,1976,Single-ply,D
