﻿REZULTATI - ŽENE;;;;;;;;;;;;;;;;;;;;;
;;;;;;;;;;;;;;;;;;;;;
R.b.;Ime i prezime;God;BW;P1;P2;P3;P4;NP;D1;D2;D3;D4;ND;TOTAL;BODOVI;;;;;;
DOBNA KATEGORIJA: OPEN;;;;;;;;;;;;;;;;;;;;;
Kategorija: - 67.5kg;;;;;;;;;;;;;;;;;;;;;
1.;Ana Marija Karakas;37;64.6;47.5;50;53;-;53;90;95;100;-;100;153;258.57;;;;;;