Place,Name,Sex,Event,Division,WeightClassKg,Equipment,BirthYear,State,BodyweightKg,Squat1Kg,Squat2Kg,Squat3Kg,Best3SquatKg,Bench1Kg,Bench2Kg,Bench3Kg,Best3BenchKg,Deadlift1Kg,Deadlift2Kg,Deadlift3Kg,Best3DeadliftKg,TotalKg
1,Jerilyn Goldberg,F,SBD,FR-M,57,Raw,1971,MA,54.6,80,-85,-85,80,37.5,40,-42.5,40,100,-105,-105,100,220
1,Mary Jo Mahoney,F,SBD,FR-M,72,Raw,1968,NH,70.8,-95,97.5,-100,97.5,67.5,72.5,75,75,127.5,135,140,140,312.5
2,Denise Smith,F,SBD,FR-M,72,Raw,1975,ME,71.8,100,105,110,110,60,62.5,65,65,127.5,135,137.5,137.5,312.5
3,Marie-Andree Cleary,F,SBD,FR-M,72,Raw,1972,NH,71.4,97.5,102.5,105,105,62.5,65,67.5,67.5,107.5,112.5,117.5,117.5,290
4,Denise Thomas,F,SBD,FR-M,72,Raw,1950,NH,65,77.5,82.5,85,85,40,42.5,-45,42.5,105,110,115,115,242.5
1,Suzanne Baumgardner,F,SBD,FR-M,84,Raw,1970,NH,81.8,115,120,125,125,67.5,70,72.5,72.5,137.5,145,152.5,152.5,350
2,Julie Buelte,F,SBD,FR-M,84,Raw,1976,NH,76.2,90,100,105,105,47.5,52.5,55,55,110,117.5,127.5,127.5,287.5
3,Andi Jennings,F,SBD,FR-M,84,Raw,1966,NH,81,-85,85,95,95,-55,57.5,65,65,115,122.5,127.5,127.5,287.5
4,Kathy Goss,F,SBD,FR-M,84,Raw,1964,NV,74,97.5,105,110,110,47.5,52.5,55,55,102.5,112.5,120,120,285
1,Kirstin Sylvester,F,SBD,FR-M,84+,Raw,1976,NH,115.4,100,105,110,110,57.5,60,62.5,62.5,127.5,135,142.5,142.5,315
1,Sarah Morrissette,F,SBD,FR-O,63,Raw,1994,MA,62,87.5,95,102.5,102.5,55,60,65,65,115,127.5,137.5,137.5,305
2,Cassandra Snow,F,SBD,FR-O,63,Raw,1989,ME,62.8,85,87.5,90,90,40,45,-47.5,45,110,112.5,-115,112.5,247.5
1,Erika Myers,F,SBD,FR-O,72,Raw,1990,NH,71.6,115,125,135,135,77.5,82.5,87.5,87.5,145,157.5,162.5,162.5,385
2,Edith Aromando,F,SBD,FR-O,72,Raw,1994,MA,68.8,105,110,-115,110,62.5,-65,-65,62.5,140,150,155,155,327.5
3,Denise Smith,F,SBD,FR-O,72,Raw,1975,ME,71.8,100,105,110,110,60,62.5,65,65,127.5,135,137.5,137.5,312.5
4,Marie-Andree Cleary,F,SBD,FR-O,72,Raw,1972,NH,71.4,97.5,102.5,105,105,62.5,65,67.5,67.5,107.5,112.5,117.5,117.5,290
5,Jessica Lima,F,SBD,FR-O,72,Raw,1987,MA,66,82.5,97.5,102.5,102.5,42.5,45,-50,45,122.5,130,137.5,137.5,285
6,Kristina Petrosino,F,SBD,FR-O,72,Raw,1982,MA,66.2,75,-80,-80,75,37.5,-42.5,-45,37.5,70,75,80,80,192.5
1,Jaime Staples,F,SBD,FR-O,84,Raw,1985,NH,83.4,122.5,127.5,130,130,80,82.5,85,85,135,142.5,145,145,360
2,Suzanne Baumgardner,F,SBD,FR-O,84,Raw,1970,NH,81.8,115,120,125,125,67.5,70,72.5,72.5,137.5,145,152.5,152.5,350
1,Mallory Malone,F,SBD,FR-O,84+,Raw,1985,NH,105.8,132.5,137.5,145,145,-65,65,-67.5,65,132.5,142.5,-147.5,142.5,352.5
2,Kirstin Sylvester,F,SBD,FR-O,84+,Raw,1976,NH,115.4,100,105,110,110,57.5,60,62.5,62.5,127.5,135,142.5,142.5,315
3,Emily Karwacki,F,SBD,FR-O,84+,Raw,1990,NH,84.6,-70,70,77.5,77.5,40,-45,-45,40,77.5,85,92.5,92.5,210
1,Jerry Peterson,M,SBD,MR-M,66,Raw,1974,ME,65.8,140,147.5,152.5,152.5,90,-97.5,-100,90,147.5,157.5,162.5,162.5,405
1,Douglas Cleary,M,SBD,MR-M,74,Raw,1970,NH,72.8,132.5,140,-145,140,85,90,-95,90,130,137.5,-142.5,137.5,367.5
1,Arthur McAleer,M,SBD,MR-M,83,Raw,1968,NH,82.8,-142.5,150,157.5,157.5,140,142.5,-145,142.5,177.5,185,192.5,192.5,492.5
2,James Staples,M,SBD,MR-M,83,Raw,1960,NH,81.8,-102.5,105,107.5,107.5,75,80,-82.5,80,145,155,165,165,352.5
1,Christopher Engebretson,M,SBD,MR-M,105,Raw,1969,MA,100.6,177.5,-185,-187.5,177.5,132.5,140,142.5,142.5,177.5,190,200,200,520
2,Paul Rousseau,M,SBD,MR-M,105,Raw,1958,NH,102.6,125,132.5,140,140,62.5,67.5,70,70,160,170,177.5,177.5,387.5
1,Esteban Rubens,M,SBD,MR-M,120,Raw,1973,NH,109.4,207.5,217.5,225,225,137.5,142.5,145,145,220,230,-245,230,600
2,Ron Morrison,M,SBD,MR-M,120,Raw,1970,ME,112.6,175,185,195,195,127.5,130,132.5,132.5,207.5,217.5,232.5,232.5,560
3,Jesse Antosiewicz,M,SBD,MR-M,120,Raw,1969,NH,108.6,160,170,177.5,177.5,122.5,130,137.5,137.5,190,197.5,205,205,520
1,Noah Herzig,M,SBD,MR-O,59,Raw,2002,MA,57.4,112.5,-120,-120,112.5,-65,70,72.5,72.5,120,125,132.5,132.5,317.5
2,Ayden Spencer,M,SBD,MR-O,59,Raw,2001,NH,56.2,87.5,95,100,100,47.5,52.5,60,60,-112.5,115,122.5,122.5,282.5
1,Steven Milioto-Crowe,M,SBD,MR-O,66,Raw,2000,NH,64.2,150,157.5,165,165,77.5,82.5,85,85,-170,175,-182.5,175,425
2,Cam Mcclure,M,SBD,MR-O,66,Raw,2000,NH,66,112.5,117.5,122.5,122.5,82.5,87.5,92.5,92.5,152.5,155,160,160,375
1,Anthony Gentile,M,SBD,MR-O,74,Raw,1989,MA,70.6,175,-182.5,182.5,182.5,97.5,105,112.5,112.5,220,230,240,240,535
2,Alan Hsieh,M,SBD,MR-O,74,Raw,1993,MA,73.2,147.5,160,167.5,167.5,85,-92.5,-92.5,85,165,185,192.5,192.5,445
3,Scott Maclean,M,SBD,MR-O,74,Raw,1988,MA,68,135,145,-155,145,85,95,-100,95,155,165,172.5,172.5,412.5
4,Douglas Cleary,M,SBD,MR-O,74,Raw,1970,NH,72.8,132.5,140,-145,140,85,90,-95,90,130,137.5,-142.5,137.5,367.5
1,Mark Gong,M,SBD,MR-O,83,Raw,1992,MA,79.6,170,180,187.5,187.5,135,145,-150,145,185,195,205,205,537.5
2,Andrew Decker,M,SBD,MR-O,83,Raw,2000,NH,79,162.5,172.5,182.5,182.5,105,120,-127.5,120,180,205,-215,205,507.5
3,Nicholas Langone,M,SBD,MR-O,83,Raw,1988,MA,81.6,140,150,-155,150,100,-110,112.5,112.5,200,215,-220,215,477.5
1,Keith Littlefield,M,SBD,MR-O,93,Raw,1982,MA,89.2,170,182.5,187.5,187.5,137.5,140,142.5,142.5,227.5,240,252.5,252.5,582.5
2,Matt Cote,M,SBD,MR-O,93,Raw,1989,NH,91.6,190,202.5,-210,202.5,130,140,-142.5,140,220,232.5,-235,232.5,575
3,Paul Vidmar,M,SBD,MR-O,93,Raw,1988,ME,92.4,-190,190,210,210,130,140,-145,140,205,-237.5,-237.5,205,555
4,John Bucceri,M,SBD,MR-O,93,Raw,1992,NH,91.2,145,160,170,170,97.5,-110,-110,97.5,177.5,202.5,-210,202.5,470
5,Edward Barton,M,SBD,MR-O,93,Raw,1983,NH,89.8,100,105,112.5,112.5,82.5,87.5,92.5,92.5,132.5,140,142.5,142.5,347.5
1,Daniel Morgan,M,SBD,MR-O,105,Raw,1987,MA,104,220,240,255,255,120,132.5,135,135,242.5,265,-277.5,265,655
2,Christopher Engebretson,M,SBD,MR-O,105,Raw,1969,MA,100.6,177.5,-185,-187.5,177.5,132.5,140,142.5,142.5,177.5,190,200,200,520
DQ,Michael Mcintyre,M,SBD,MR-O,105,Raw,1988,MA,103.6,-210,220,-230,220,-140,-147.5,-147.5,,240,250,262.5,262.5,
1,Nolan Lenane,M,SBD,MR-O,120,Raw,1998,NH,108.4,170,180,202.5,202.5,115,137.5,-145,137.5,170,205,225,225,565
2,Kelly Smith,M,SBD,MR-O,120,Raw,1979,ME,115.2,180,192.5,202.5,202.5,120,125,132.5,132.5,185,197.5,212.5,212.5,547.5
3,Michael Lacerte,M,SBD,MR-O,120,Raw,1987,NH,114,192.5,200,205,205,100,107.5,-115,107.5,215,-230,-230,215,527.5
4,Jesse Antosiewicz,M,SBD,MR-O,120,Raw,1969,NH,108.6,160,170,177.5,177.5,122.5,130,137.5,137.5,190,197.5,205,205,520
1,Noah Herzig,M,SBD,MR-TJ,59,Raw,2002,MA,57.4,112.5,-120,-120,112.5,-65,70,72.5,72.5,120,125,132.5,132.5,317.5
2,Ayden Spencer,M,SBD,MR-TJ,59,Raw,2001,NH,56.2,87.5,95,100,100,47.5,52.5,60,60,-112.5,115,122.5,122.5,282.5
1,Cam Mcclure,M,SBD,MR-TJ,66,Raw,2000,NH,60,112.5,117.5,122.5,122.5,82.5,87.5,92.5,92.5,152.5,155,160,160,375
1,Alan Hsieh,M,SBD,MR-TJ,74,Raw,1993,MA,73.2,147.5,160,167.5,167.5,85,-92.5,-92.5,85,165,185,192.5,192.5,445
2,Maxwell Litchfield,M,SBD,MR-TJ,74,Raw,1999,NH,67.4,95,100,105,105,65,70,-72.5,70,140,145,150,150,325
1,Willie Phoeung,M,SBD,MR-TJ,83,Raw,2000,MA,82.6,190,200,210,210,102.5,107.5,110,110,212.5,225,240,240,560
2,Andrew Decker,M,SBD,MR-TJ,83,Raw,2000,NH,79,162.5,172.5,182.5,182.5,105,120,-127.5,120,180,205,-215,205,507.5
3,Axel Miazga,M,SBD,MR-TJ,83,Raw,1999,CT,80.4,170,-185,-185,170,85,90,-100,90,185,192.5,200,200,460
1,Nolan Lenane,M,SBD,MR-TJ,120,Raw,1998,NH,108.4,170,180,202.5,202.5,115,137.5,-145,137.5,170,205,225,225,565
1,Colin Becker,M,SBD,MR-Y,53,Raw,2004,NH,48.4,60,65,67.5,67.5,45,47.5,-50,47.5,82.5,87.5,92.5,92.5,207.5
