Division,WeightClassKg,Place,Name,Team,BodyweightKg,Best3SquatKg,Best3BenchKg,Best3DeadliftKg,TotalKg,Equipment,Event,Sex
Girls,44.23,1,Isabella Gonzales,Pearland,44,88.45,31.75,74.84,195.04,Single-ply,SBD,F
Girls,47.85,1,Amanda Barrera,Alvin,46.72,95.25,38.56,113.4,247.21,Single-ply,SBD,F
Girls,47.85,2,Valerie Arango,Channelview,44.63,88.45,38.56,106.59,233.6,Single-ply,SBD,F
Girls,47.85,3,Ariana Luna,Channelview,47.17,88.45,38.56,99.79,226.8,Single-ply,SBD,F
Girls,47.85,4,Keira Rodriguez,Santa Fe,47.45,83.91,43.09,92.99,219.99,Single-ply,SBD,F
Girls,47.85,5,Kennedi Herrington,Pearland,47.72,86.18,36.29,83.91,206.38,Single-ply,SBD,F
Girls,47.85,6,Lainey McDonald,Willis,47.17,74.84,38.56,86.18,199.58,Single-ply,SBD,F
Girls,47.85,7,Jocelyn Hernandez,Channelview,47.17,79.38,36.29,83.91,199.58,Single-ply,SBD,F
Girls,47.85,8,Jacqueline Ruiz,Houston Northbrook,47.17,70.31,36.29,81.65,188.24,Single-ply,SBD,F
Girls,47.85,9,Peyton Payne,Willis,45.81,68.04,31.75,83.91,183.7,Single-ply,SBD,F
Girls,47.85,10,Katie Wamsley,Pearland Dawson,44.91,47.63,24.95,74.84,147.42,Single-ply,SBD,F
Girls,47.85,11,Darineasha Waldrop,Houston Northbrook,47.17,40.82,22.68,68.04,131.54,Single-ply,SBD,F
Girls,51.94,1,Anna Chapa,Willis,51.26,106.59,52.16,122.47,281.23,Single-ply,SBD,F
Girls,51.94,2,Crystal Phan,Dickinson,51.26,104.33,45.36,111.13,260.82,Single-ply,SBD,F
Girls,51.94,3,Ruby Ochoa,Houston Northbrook,51.26,102.06,38.56,97.52,238.14,Single-ply,SBD,F
Girls,51.94,4,Paloma Garcia,Alvin,50.71,97.52,43.09,92.99,233.6,Single-ply,SBD,F
Girls,51.94,5,Madi Cervantes,Santa Fe,50.35,95.25,36.29,92.99,224.53,Single-ply,SBD,F
Girls,51.94,6,Sidney Kubicek,Pearland,51.53,74.84,36.29,81.65,192.78,Single-ply,SBD,F
Girls,56.02,1,Araceli Dale,Alvin,55.34,102.06,52.16,111.13,265.35,Single-ply,SBD,F
Girls,56.02,2,Karli Kalischko,Alvin,55.34,99.79,52.16,97.52,249.48,Single-ply,SBD,F
Girls,56.02,3,Nova Tull,Santa Fe,54.34,74.84,31.75,83.91,190.51,Single-ply,SBD,F
Girls,56.02,4,Angelina Biela,Texas City,55.52,72.57,40.82,68.04,181.44,Single-ply,SBD,F
Girls,56.02,5,Sydney Mounts,Santa Fe,55.34,95.25,38.56,,133.81,Single-ply,SB,F
Girls,60.1,1,Nancy Meza,Alvin,59.06,142.88,49.9,142.88,335.66,Single-ply,SBD,F
Girls,60.1,2,Joselin Lara,Channelview,59.42,127.01,52.16,140.61,319.78,Single-ply,SBD,F
Girls,60.1,3,Gracie Cervantes,Santa Fe,58.97,111.13,52.16,111.13,274.42,Single-ply,SBD,F
Girls,60.1,4,Nuhoang Phan,Dickinson,59.42,113.4,43.09,108.86,265.35,Single-ply,SBD,F
Girls,60.1,5,Dominique DeLaRosa,Alvin,58.88,104.33,47.63,102.06,254.01,Single-ply,SBD,F
Girls,60.1,6,Emily Rubio,Dickinson,59.24,97.52,36.29,106.59,240.4,Single-ply,SBD,F
Girls,60.1,7,Jasie Melancon,Santa Fe,59.42,92.99,45.36,92.99,231.33,Single-ply,SBD,F
Girls,60.1,8,Alex Cravey,Santa Fe,59.42,99.79,43.09,88.45,231.33,Single-ply,SBD,F
Girls,60.1,9,Payton Bailey,Santa Fe,59.42,70.31,31.75,74.84,176.9,Single-ply,SBD,F
Girls,60.1,10,Madisyn Marcantel,Santa Fe,58.97,56.7,38.56,,95.25,Single-ply,SB,F
Girls,67.36,1,Camila Recendez,Alvin,66.86,149.69,47.63,136.08,333.39,Single-ply,SBD,F
Girls,67.36,2,Symantha Donaldson,Pearland,66.68,127.01,65.77,124.74,317.51,Single-ply,SBD,F
Girls,67.36,3,Angelica Avalos,Alvin,63.96,138.35,58.97,113.4,310.71,Single-ply,SBD,F
Girls,67.36,4,Clarissa Perez,Texas City,66.04,104.33,61.23,117.93,283.5,Single-ply,SBD,F
Girls,67.36,5,Kaymen Anderson,Dickinson,65.14,115.67,47.63,106.59,269.89,Single-ply,SBD,F
Girls,67.36,6,Raeann Hernandez,Alvin,66.68,106.59,40.82,122.47,269.89,Single-ply,SBD,F
Girls,67.36,7,Jacie DiSalvo,Dickinson,65.41,108.86,43.09,102.06,254.01,Single-ply,SBD,F
Girls,67.36,8,Morgan Singleton,Pearland,66.68,90.72,43.09,102.06,235.87,Single-ply,SBD,F
Girls,67.36,9,Fiorella Midulla-Blanco,Houston Clear Lake,66.68,88.45,45.36,97.52,231.33,Single-ply,SBD,F
Girls,67.36,10,Janice Maldonado,Willis,66.68,88.45,38.56,90.72,217.72,Single-ply,SBD,F
Girls,67.36,11,Destyni Trevino,La Marque,60.69,90.72,34.02,86.18,210.92,Single-ply,SBD,F
Girls,67.36,DQ,Sage Landor,Texas City,62.41,,,,,Single-ply,SBD,F
Girls,75.07,1,Krissy Prier,Pearland Dawson,74.39,124.74,52.16,127.01,303.91,Single-ply,SBD,F
Girls,75.07,2,Karissa Betancourt,Santa Fe,74.39,115.67,65.77,115.67,297.1,Single-ply,SBD,F
Girls,75.07,3,Kaitlin Chaffin,Willis,67.86,104.33,52.16,127.01,283.5,Single-ply,SBD,F
Girls,75.07,4,Kolby Williams,Texas City,74.57,111.13,52.16,108.86,272.16,Single-ply,SBD,F
Girls,75.07,5,Paris Rodriguez,Texas City,74.39,106.59,43.09,106.59,256.28,Single-ply,SBD,F
Girls,75.07,6,Kyleigh McGilberry,Santa Fe,74.39,102.06,54.43,97.52,254.01,Single-ply,SBD,F
Girls,75.07,7,Aliviah Hood,Willis,74.39,81.65,31.75,106.59,219.99,Single-ply,SBD,F
Girls,82.33,1,Lacey Johnson,Pearland Dawson,76.66,149.69,61.23,133.81,344.73,Single-ply,SBD,F
Girls,82.33,2,Haylee Wolfe,Santa Fe,81.19,136.08,68.04,122.47,326.59,Single-ply,SBD,F
Girls,82.33,3,Cassidy Casey,Pearland Dawson,78.93,115.67,49.9,127.01,292.57,Single-ply,SBD,F
Girls,82.33,4,Gabby Magenheim,Pearland Dawson,78.47,106.59,45.36,117.93,269.89,Single-ply,SBD,F
Girls,82.33,5,Sadie White,Santa Fe,81.19,102.06,49.9,99.79,251.74,Single-ply,SBD,F
Girls,82.33,6,Aaliyah Oliver,La Marque,81.65,90.72,43.09,102.06,235.87,Single-ply,SBD,F
Girls,82.33,DQ,Jada Wolf,La Marque,81.65,,,,,Single-ply,SBD,F
Girls,90.04,1,Stevie Goodman,Alvin,89.36,127.01,54.43,129.27,310.71,Single-ply,SBD,F
Girls,90.04,2,Madelynn Gustafson,Dickinson,89.81,113.4,49.9,108.86,272.16,Single-ply,SBD,F
Girls,90.04,3,Diamond Trevino,Houston Clear Lake,89.18,113.4,45.36,86.18,244.94,Single-ply,SBD,F
Girls,90.04,DQ,Trinity Lee,Pearland,89.36,111.13,,,,Single-ply,SBD,F
Girls,100.02,1,Trinity Ruiz,Alvin,99.06,179.17,81.65,147.42,408.23,Single-ply,SBD,F
Girls,100.02,2,Kylie Allbritton,Pearland,99.06,136.08,58.97,136.08,331.12,Single-ply,SBD,F
Girls,100.02,3,Ashanti Robinson,Dickinson,94.53,113.4,70.31,142.88,326.59,Single-ply,SBD,F
Girls,100.02,4,Alexia Aguirre,Dickinson,97.52,117.93,56.7,124.74,299.37,Single-ply,SBD,F
Girls,100.02,5,Olivier Payton,La Marque,97.34,104.33,54.43,106.59,265.35,Single-ply,SBD,F
Girls,100.02,6,Marissa Fernandez,Texas City,99.34,79.38,43.09,83.91,206.38,Single-ply,SBD,F
Girls,117.71,1,Stephanie Hawkins,Dickinson,100.24,147.42,58.97,142.88,349.27,Single-ply,SBD,F
Girls,117.71,2,Hayli Pennington,Alvin,116.57,165.56,61.23,120.2,347,Single-ply,SBD,F
Girls,117.71,3,Madison Hall,Channelview,117.03,140.61,65.77,136.08,342.46,Single-ply,SBD,F
Girls,117.71,4,Jalecia Myles,Dickinson,111.95,117.93,54.43,124.74,297.1,Single-ply,SBD,F
Girls,117.71,DQ,Savannah Haas,Texas City,100.24,108.86,,,,Single-ply,SBD,F
Girls,117.71+,1,Haley Blumrich,Pearland Dawson,134.26,201.85,79.38,158.76,439.98,Single-ply,SBD,F
Girls,117.71+,2,Belen Almader,Alvin,117.93,185.97,68.04,151.95,405.97,Single-ply,SBD,F
Girls,117.71+,3,Avari Ford,Willis,140.61,149.69,65.77,124.74,340.19,Single-ply,SBD,F
Girls,117.71+,4,Mecaiya Green,Dickinson,117.93,138.35,72.57,122.47,333.39,Single-ply,SBD,F
Girls,117.71+,5,Brooke McClelland,Willis,122.47,124.74,72.57,97.52,294.84,Single-ply,SBD,F
Girls,117.71+,6,Tynealle Brown,Houston Northbrook,138.35,90.72,45.36,113.4,249.48,Single-ply,SBD,F
