Division,WeightClassKg,Place,Name,Team,BodyweightKg,Best3SquatKg,Best3BenchKg,Best3DeadliftKg,TotalKg,Equipment,Event,Sex
Girls,44.23,1,Lexus Gutierrez,Mathis,43.68,120.2,58.97,131.54,310.71,Single-ply,SBD,F
Girls,44.23,2,Amber Fuentes,Odem,43.45,102.06,45.36,106.59,254.01,Single-ply,SBD,F
Girls,44.23,3,Leanna Rodriguez,Alice,42.64,95.25,38.56,113.4,247.21,Single-ply,SBD,F
Girls,44.23,4,Myndi Garcia,Corpus Christi Tuloso-Midway,44.18,97.52,40.82,95.25,233.6,Single-ply,SBD,F
Girls,44.23,5,Joanna Flores,Agua Dulce,44.18,86.18,34.02,102.06,222.26,Single-ply,SBD,F
Girls,44.23,6,Gabby Garza,Corpus Christi Tuloso-Midway,44.18,77.11,36.29,92.99,206.38,Single-ply,SBD,F
Girls,44.23,7,Cailin Lopez,Gregory-Portland,41.55,68.04,38.56,90.72,197.31,Single-ply,SBD,F
Girls,44.23,DQ,Lesette Munoz,Mathis,44.23,102.06,,,,Single-ply,SBD,F
Girls,44.23,DQ,Sarah O'Canas,Sinton,42.55,68.04,,,,Single-ply,SBD,F
Girls,47.85,1,Vanessa Vega,Skidmore-Tynan,47.63,124.74,58.97,120.2,303.91,Single-ply,SBD,F
Girls,47.85,2,Nyelli Garza,Hebbronville,47.08,102.06,45.36,124.74,272.16,Single-ply,SBD,F
Girls,47.85,3,Ayssa Hinojosa,Hebbronville,47.54,102.06,43.09,120.2,265.35,Single-ply,SBD,F
Girls,47.85,4,Ashley Rios,Corpus Christi Tuloso-Midway,47.63,104.33,45.36,111.13,260.82,Single-ply,SBD,F
Girls,47.85,5,Isabella Adams,Sinton,45.63,83.91,43.09,97.52,224.53,Single-ply,SBD,F
Girls,47.85,6,Arianna O'Canas,Sinton,47.81,74.84,43.09,104.33,222.26,Single-ply,SBD,F
Girls,47.85,7,Lorena Rodriguez,Gregory-Portland,47.63,90.72,38.56,90.72,219.99,Single-ply,SBD,F
Girls,47.85,8,Alexis Benavides,Alice,45.36,88.45,34.02,95.25,217.72,Single-ply,SBD,F
Girls,47.85,9,Zarina Molina,Hebbronville,45.99,83.91,34.02,99.79,217.72,Single-ply,SBD,F
Girls,47.85,10,Joslyn Lopez,Gregory-Portland,45.18,65.77,27.22,92.99,185.97,Single-ply,SBD,F
Girls,47.85,11,Abbigael Aguirre,Odem,46.63,70.31,27.22,79.38,176.9,Single-ply,SBD,F
Girls,51.94,1,Mireya Cantu,Hebbronville,51.26,120.2,54.43,106.59,281.23,Single-ply,SBD,F
Girls,51.94,2,Yagaira Martinez,Sinton,48.08,108.86,47.63,117.93,274.42,Single-ply,SBD,F
Girls,51.94,3,Dashae Atkinson,Hebbronville,50.98,102.06,58.97,104.33,265.35,Single-ply,SBD,F
Girls,51.94,4,Heather Rios,Corpus Christi London,51.26,99.79,49.9,115.67,265.35,Single-ply,SBD,F
Girls,51.94,5,Ashley Arroyo,Alice,50.44,83.91,34.02,104.33,222.26,Single-ply,SBD,F
Girls,51.94,6,Leseira Rivera,Corpus Christi Calallen,49.9,77.11,40.82,77.11,195.04,Single-ply,SBD,F
Girls,56.02,1,Kailey Castillo,Corpus Christi Tuloso-Midway,55.97,151.95,70.31,131.54,353.8,Single-ply,SBD,F
Girls,56.02,2,Carolina Flores,Hebbronville,55.02,131.54,63.5,136.08,331.12,Single-ply,SBD,F
Girls,56.02,3,Madison Salinas,Hebbronville,55.97,129.27,58.97,140.61,328.85,Single-ply,SBD,F
Girls,56.02,4,Daniela Aguilar,Hebbronville,53.89,104.33,54.43,102.06,260.82,Single-ply,SBD,F
Girls,56.02,5,Kirstyn Garza,Agua Dulce,54.88,97.52,45.36,113.4,256.28,Single-ply,SBD,F
Girls,56.02,6,Emma Tovar,Orange Grove,53.16,115.67,47.63,88.45,251.74,Single-ply,SBD,F
Girls,56.02,7,Emily Allen,Corpus Christi Tuloso-Midway,54.79,90.72,43.09,99.79,233.6,Single-ply,SBD,F
Girls,56.02,8,Madison Flores,Mathis,55.88,92.99,40.82,92.99,226.8,Single-ply,SBD,F
Girls,56.02,9,Kyla Beard,Corpus Christi London,55.97,79.38,34.02,92.99,206.38,Single-ply,SBD,F
Girls,56.02,NS,Amberlynn Ortega,Agua Dulce,,,,,,Single-ply,SBD,F
Girls,60.1,1,Isabella Alarcon,Corpus Christi Tuloso-Midway,60.06,131.54,52.16,149.69,333.39,Single-ply,SBD,F
Girls,60.1,2,Mea Villarreal,Mathis,59.33,108.86,68.04,113.4,290.3,Single-ply,SBD,F
Girls,60.1,3,McKenzie O'Neal,Corpus Christi London,58.97,122.47,61.23,104.33,288.03,Single-ply,SBD,F
Girls,60.1,4,Samantha Ware,Gregory-Portland,58.24,113.4,56.7,113.4,283.5,Single-ply,SBD,F
Girls,60.1,5,Madeline Doughterty,Skidmore-Tynan,59.87,115.67,56.7,108.86,281.23,Single-ply,SBD,F
Girls,60.1,6,Evelyn Guerra,Benavides,59.15,106.59,47.63,120.2,274.42,Single-ply,SBD,F
Girls,60.1,7,Camille Yeltetzie,Gregory-Portland,58.15,102.06,54.43,113.4,269.89,Single-ply,SBD,F
Girls,60.1,8,Madison Johnson,Corpus Christi Tuloso-Midway,59.15,90.72,54.43,113.4,258.55,Single-ply,SBD,F
Girls,60.1,9,Natalie Sanchez,Orange Grove,59.42,92.99,38.56,72.57,204.12,Single-ply,SBD,F
Girls,60.1,10,Brenda Gallardo,Sinton,58.33,68.04,38.56,77.11,183.7,Single-ply,SBD,F
Girls,60.1,11,Savanah Diaz,Three Rivers,59.78,58.97,36.29,81.65,176.9,Single-ply,SBD,F
Girls,60.1,DQ,Jasmin Canizales,Sinton,60.06,68.04,,,,Single-ply,SBD,F
Girls,60.1,DQ,Layla Ferriera,Corpus Christi Calallen,58.6,58.97,,,,Single-ply,SBD,F
Girls,60.1,DQ,Jasmine Hernandez,Alice,58.69,,,,,Single-ply,SBD,F
Girls,60.1,NS,Daphne Peralta,Mathis,,,,,,Single-ply,SBD,F
Girls,67.36,1,Abby Esquivel,Mathis,64.68,147.42,72.57,147.42,367.41,Single-ply,SBD,F
Girls,67.36,2,Kendall Straube,Three Rivers,66.68,147.42,70.31,149.69,367.41,Single-ply,SBD,F
Girls,67.36,3,Briana Cruz,Mathis,65.23,145.15,68.04,136.08,349.27,Single-ply,SBD,F
Girls,67.36,4,Jolynn Moreno,Hebbronville,64.05,133.81,61.23,127.01,322.05,Single-ply,SBD,F
Girls,67.36,5,Courtney Lamontange,Corpus Christi Tuloso-Midway,64.32,104.33,56.7,129.27,290.3,Single-ply,SBD,F
Girls,67.36,6,Lorenna Nino,Corpus Christi Tuloso-Midway,66.59,95.25,52.16,106.59,254.01,Single-ply,SBD,F
Girls,67.36,7,Marissa Flores,Agua Dulce,60.69,97.52,40.82,102.06,240.4,Single-ply,SBD,F
Girls,67.36,8,Dominique DeLaRosa,Sinton,61.78,90.72,45.36,104.33,240.4,Single-ply,SBD,F
Girls,67.36,9,Brooke Gallimore,Orange Grove,66.86,88.45,38.56,102.06,229.06,Single-ply,SBD,F
Girls,67.36,10,Julie Knox,Sinton,62.05,83.91,38.56,83.91,206.38,Single-ply,SBD,F
Girls,67.36,11,Grace Johnston,Corpus Christi London,63.87,65.77,29.48,90.72,185.97,Single-ply,SBD,F
Girls,67.36,12,Gwen Hill,Gregory-Portland,65.59,45.36,27.22,90.72,163.29,Single-ply,SBD,F
Girls,67.36,DQ,Estefania Hernandez,Mathis,67.13,154.22,,,,Single-ply,SBD,F
Girls,67.36,DQ,Kat Lopez,Gregory-Portland,65.41,117.93,63.5,,,Single-ply,SBD,F
Girls,67.36,DQ,Gabby Garcia,Corpus Christi London,63.78,,,,,Single-ply,SBD,F
Girls,75.07,1,Faith Rios,Mathis,73.66,158.76,70.31,140.61,369.68,Single-ply,SBD,F
Girls,75.07,2,Jozelle Rodriguez,Mathis,74.48,142.88,74.84,142.88,360.61,Single-ply,SBD,F
Girls,75.07,3,Nadia Mercado,Mathis,69.58,117.93,61.23,149.69,328.85,Single-ply,SBD,F
Girls,75.07,4,Lesly Juarez,Odem,73.48,133.81,56.7,136.08,326.59,Single-ply,SBD,F
Girls,75.07,5,Dominique Lara,Odem,73.84,124.74,54.43,111.13,290.3,Single-ply,SBD,F
Girls,75.07,6,Dj Huetter,Gregory-Portland,75.02,115.67,61.23,113.4,290.3,Single-ply,SBD,F
Girls,75.07,7,Ysabella Munoz,Alice,72.03,113.4,47.63,127.01,288.03,Single-ply,SBD,F
Girls,75.07,8,Eliza Lopez,Gregory-Portland,75.02,104.33,70.31,97.52,272.16,Single-ply,SBD,F
Girls,75.07,9,Katryn Edwards,Sinton,74.57,99.79,45.36,117.93,263.08,Single-ply,SBD,F
Girls,75.07,10,Shakira Pena,Orange Grove,73.03,88.45,45.36,97.52,231.33,Single-ply,SBD,F
Girls,75.07,11,Susie Harrison,Skidmore-Tynan,73.94,86.18,45.36,90.72,222.26,Single-ply,SBD,F
Girls,75.07,NS,Aleksandra Johnson,Orange Grove,,,,,,Single-ply,SBD,F
Girls,75.07,NS,Kassidy Lee,Orange Grove,,,,,,Single-ply,SBD,F
Girls,75.07,DQ,Amberly Vssquez,Alice,74.93,,,,,Single-ply,SBD,F
Girls,75.07,DQ,Kellie Martinez,Freer,72.67,117.93,,,,Single-ply,SBD,F
Girls,75.07,DQ,Karian Avila,Hebbronville,75.02,,,,,Single-ply,SBD,F
Girls,75.07,NS,Elena Davila,Mathis,,,,,,Single-ply,SBD,F
Girls,82.33,1,Allyson Rangel,Freer,75.57,165.56,61.23,151.95,378.75,Single-ply,SBD,F
Girls,82.33,2,Brittney Stafford,Hebbronville,82.1,145.15,88.45,140.61,374.21,Single-ply,SBD,F
Girls,82.33,3,Aryana Martinez,Gregory-Portland,79.02,136.08,72.57,136.08,344.73,Single-ply,SBD,F
Girls,82.33,4,Damaris Diaz,Mathis,80.47,136.08,63.5,145.15,344.73,Single-ply,SBD,F
Girls,82.33,5,Marivel Perez,Mathis,82.19,127.01,74.84,129.27,331.12,Single-ply,SBD,F
Girls,82.33,6,Megan Frerich,Odem,75.84,113.4,61.23,124.74,299.37,Single-ply,SBD,F
Girls,82.33,7,Taylor Ramirez,Sinton,81.19,122.47,58.97,113.4,294.84,Single-ply,SBD,F
Girls,82.33,8,Melissa Almaras,Alice,80.83,106.59,54.43,111.13,272.16,Single-ply,SBD,F
Girls,82.33,DQ,Mia Leal,Corpus Christi Tuloso-Midway,77.29,97.52,49.9,,,Single-ply,SBD,F
Girls,82.33,DQ,Farran Suggs,Gregory-Portland,82.01,131.54,,,,Single-ply,SBD,F
Girls,82.33,NS,Andrea Sanchez,Orange Grove,,,,,,Single-ply,SBD,F
Girls,82.33,NS,Emily Ortiz,Orange Grove,,,,,,Single-ply,SBD,F
Girls,90.04,1,Alexis Estringel,Alice,84.55,174.63,99.79,147.42,421.84,Single-ply,SBD,F
Girls,90.04,2,Amanda Vasquez,Skidmore-Tynan,89.81,138.35,74.84,165.56,378.75,Single-ply,SBD,F
Girls,90.04,3,Zoie Hartman,Corpus Christi Calallen,86.91,151.95,65.77,158.76,376.48,Single-ply,SBD,F
Girls,90.04,4,Jessica Morales,Odem,86.73,138.35,63.5,145.15,347,Single-ply,SBD,F
Girls,90.04,5,Brianna Leal,Freer,83.37,129.27,72.57,133.81,335.66,Single-ply,SBD,F
Girls,90.04,NS,Crayton Alexandra,Sinton,,,,,,Single-ply,SBD,F
Girls,100.02,1,Analydia Montes,Corpus Christi Tuloso-Midway,97.52,158.76,52.16,129.27,340.19,Single-ply,SBD,F
Girls,100.02,2,Clarissa Vargas,Orange Grove,91.99,138.35,56.7,142.88,337.93,Single-ply,SBD,F
Girls,100.02,3,Maraya Ruiz,Corpus Christi Calallen,99.06,115.67,54.43,113.4,283.5,Single-ply,SBD,F
Girls,100.02,4,Aislinn Gonzales,Alice,97.98,111.13,47.63,90.72,249.48,Single-ply,SBD,F
Girls,100.02,DQ,Rianna Gonzales,Alice,95.25,117.93,54.43,,,Single-ply,SBD,F
Girls,100.02,DQ,Jennifer Lozano,Hebbronville,99.06,213.19,95.25,213.19,,Single-ply,SBD,F
Girls,100.02,DQ,Jadyn Garcia,Corpus Christi Tuloso-Midway,94.35,,,,,Single-ply,SBD,F
Girls,117.71,1,Ebony Vega,Mathis,114.85,199.58,90.72,161.03,451.32,Single-ply,SBD,F
Girls,117.71,2,Jodi Linscomb,Freer,106.5,172.37,68.04,124.74,365.14,Single-ply,SBD,F
Girls,117.71,3,Hailey DeLeon,Alice,100.52,149.69,56.7,136.08,342.46,Single-ply,SBD,F
Girls,117.71,4,Kendra Garcia,Three Rivers,111.77,136.08,65.77,127.01,328.85,Single-ply,SBD,F
Girls,117.71,5,Jovanna Guzman,Benavides,110.13,120.2,56.7,149.69,326.59,Single-ply,SBD,F
Girls,117.71,6,Anna Leija,Sinton,100.52,120.2,74.84,115.67,310.71,Single-ply,SBD,F
Girls,117.71+,1,Shania Zapata,Benavides,120.66,149.69,68.04,102.06,319.78,Single-ply,SBD,F
