Division,WeightClassKg,Place,Name,Team,BodyweightKg,Best3SquatKg,Best3BenchKg,Best3DeadliftKg,TotalKg,Equipment,Event,Sex
Boys,51.71,1,Marin Santiago,Friona,51.62,124.74,52.16,147.42,324.32,Single-ply,SBD,M
Boys,51.71,2,Rowdy Huffaker,Abernathy,47.99,95.25,49.9,102.06,247.21,Single-ply,SBD,M
Boys,51.71,3,Matt Perez,Ralls,45.45,81.65,43.09,108.86,233.6,Single-ply,SBD,M
Boys,55.79,1,Ervey Alvarado,Post,55.43,140.61,72.57,129.27,342.46,Single-ply,SBD,M
Boys,55.79,2,Gerardo Trejo,Friona,55.79,124.74,61.23,111.13,297.1,Single-ply,SBD,M
Boys,55.79,3,Charles Clark,Ralls,54.39,102.06,72.57,120.2,294.84,Single-ply,SBD,M
Boys,59.87,1,Luis Trejo,Friona,59.51,206.38,106.59,185.97,498.95,Single-ply,SBD,M
Boys,59.87,2,Bryan de la Torre,Bovina,59.65,149.69,79.38,170.1,399.16,Single-ply,SBD,M
Boys,59.87,3,Isaiah Zavala,Ralls,58.97,102.06,68.04,108.86,278.96,Single-ply,SBD,M
Boys,59.87,4,Frank Mata,Sundown,57.24,61.23,54.43,90.72,206.38,Single-ply,SBD,M
Boys,67.13,1,Chris Chavarria,Floydada,66.27,172.37,97.52,190.51,460.4,Single-ply,SBD,M
Boys,67.13,2,John Lugo,Ralls,67.09,129.27,86.18,136.08,351.53,Single-ply,SBD,M
Boys,67.13,3,Zach Mendoza,Abernathy,62.19,131.54,74.84,131.54,337.93,Single-ply,SBD,M
Boys,67.13,4,Ricky Cuellar,Lockney,63.05,136.08,65.77,127.01,328.85,Single-ply,SBD,M
Boys,67.13,5,Jonathan Rodriguez,Post,63.05,115.67,74.84,127.01,317.51,Single-ply,SBD,M
Boys,67.13,6,Justin Greenlee,Plains,66.41,113.4,61.23,127.01,301.64,Single-ply,SBD,M
Boys,67.13,7,George Flores,Abernathy,62.19,108.86,70.31,115.67,294.84,Single-ply,SBD,M
Boys,67.13,8,Brandon Ureste,Abernathy,60.96,113.4,61.23,111.13,285.76,Single-ply,SBD,M
Boys,67.13,9,Michael Salinas,Ralls,64.32,102.06,61.23,95.25,258.55,Single-ply,SBD,M
Boys,67.13,DQ,Domian Garcia,Post,65.36,145.15,,,,Single-ply,SBD,M
Boys,67.13,DQ,Ross Rendon,Ralls,65.36,,,,,Single-ply,SBD,M
Boys,67.13,DQ,Donald Gibbens,Floydada,65.59,,,,,Single-ply,SBD,M
Boys,74.84,1,Marco Sanchez,Bovina,74.75,172.37,106.59,188.24,467.2,Single-ply,SBD,M
Boys,74.84,2,Jayton Grisham,Abernathy,74.75,181.44,88.45,181.44,451.32,Single-ply,SBD,M
Boys,74.84,3,Steven Anna,Plains,72.48,140.61,106.59,172.37,419.57,Single-ply,SBD,M
Boys,74.84,4,Parker Redwine,Abernathy,73.53,156.49,86.18,161.03,403.7,Single-ply,SBD,M
Boys,74.84,5,Jesus Villarreal,Ralls,70.31,136.08,106.59,124.74,367.41,Single-ply,SBD,M
Boys,74.84,6,Hunter Graves,Post,71.12,136.08,79.38,147.42,362.87,Single-ply,SBD,M
Boys,74.84,7,Hunter Stanley,Sundown,71.21,133.81,79.38,149.69,362.87,Single-ply,SBD,M
Boys,74.84,8,Miguel Rochel,Bovina,70.44,147.42,86.18,122.47,356.07,Single-ply,SBD,M
Boys,74.84,9,Julian Cruz,Friona,68.81,136.08,77.11,127.01,340.19,Single-ply,SBD,M
Boys,74.84,10,Austin Mercado,Friona,73.84,122.47,81.65,136.08,340.19,Single-ply,SBD,M
Boys,74.84,11,Matt Lopez,Ralls,69.94,104.33,83.91,88.45,276.69,Single-ply,SBD,M
Boys,82.1,1,Link Wilkes,Sundown,79.24,208.65,113.4,217.72,539.77,Single-ply,SBD,M
Boys,82.1,2,Mark Pando,Abernathy,78.02,183.7,113.4,195.04,492.15,Single-ply,SBD,M
Boys,82.1,3,Bryce Spencer,Sundown,77.7,158.76,88.45,147.42,394.63,Single-ply,SBD,M
Boys,82.1,4,Pedro Villarreal,Ralls,75.52,136.08,97.52,158.76,392.36,Single-ply,SBD,M
Boys,82.1,5,Cameron Flores,Bovina,79.11,127.01,79.38,172.37,378.75,Single-ply,SBD,M
Boys,82.1,6,Aiden Jumper,Abernathy,80.15,142.88,74.84,145.15,362.87,Single-ply,SBD,M
Boys,82.1,7,Matthew Mireles,Friona,77.43,133.81,86.18,131.54,351.53,Single-ply,SBD,M
Boys,82.1,8,Brody Black,Sundown,82.1,113.4,86.18,142.88,342.46,Single-ply,SBD,M
Boys,82.1,9,Stephen Cortez,Abernathy,79.29,108.86,58.97,97.52,265.35,Single-ply,SBD,M
Boys,82.1,10,Mark Hartman,Plains,77.34,70.31,70.31,113.4,254.01,Single-ply,SBD,M
Boys,89.81,1,Nathan Sullivan,Abernathy,87.63,190.51,111.13,179.17,480.81,Single-ply,SBD,M
Boys,89.81,2,AJ Ascobedo,Post,88.45,170.1,122.47,181.44,474,Single-ply,SBD,M
Boys,89.81,3,Joel Cigarroa,Friona,89.36,195.04,106.59,163.29,464.93,Single-ply,SBD,M
Boys,89.81,4,Noah Hernandez,Abernathy,88.77,170.1,97.52,174.63,442.25,Single-ply,SBD,M
Boys,89.81,5,Ariel Jaramillo,Friona,86.73,158.76,83.91,158.76,401.43,Single-ply,SBD,M
Boys,89.81,6,Jesus Jaramillo,Friona,85.59,133.81,79.38,156.49,369.68,Single-ply,SBD,M
Boys,89.81,7,Chandler Shillig,Sundown,82.96,142.88,83.91,140.61,367.41,Single-ply,SBD,M
Boys,89.81,8,David Cox,Sundown,82.78,115.67,74.84,151.95,342.46,Single-ply,SBD,M
Boys,89.81,9,Zach Harris,Plains,88.81,106.59,81.65,140.61,328.85,Single-ply,SBD,M
Boys,89.81,10,Riley McBee,Meadow,89.77,90.72,79.38,117.93,288.03,Single-ply,SBD,M
Boys,89.81,11,Andrew Cigarroa,Friona,83.6,117.93,61.23,104.33,283.5,Single-ply,SBD,M
Boys,99.79,1,Bryson Kitchens,Abernathy,97.61,197.31,124.74,217.72,539.77,Single-ply,SBD,M
Boys,99.79,2,Valente Perez,Post,93.35,201.85,111.13,192.78,505.76,Single-ply,SBD,M
Boys,99.79,3,Tristan Castillo,Friona,95.53,170.1,113.4,151.95,435.45,Single-ply,SBD,M
Boys,99.79,4,Isaiah Lira,Plains,94.8,161.03,97.52,174.63,433.18,Single-ply,SBD,M
Boys,99.79,5,Steven Bazan,Lockney,96.8,138.35,83.91,129.27,351.53,Single-ply,SBD,M
Boys,99.79,6,Israel Barrera,Ralls,99.2,136.08,72.57,136.08,344.73,Single-ply,SBD,M
Boys,99.79,7,Caleb Reynoso,Ralls,98.84,127.01,74.84,131.54,333.39,Single-ply,SBD,M
Boys,109.77,1,Jacob Rosales,Abernathy,100.24,190.51,127.01,195.04,512.56,Single-ply,SBD,M
Boys,109.77,2,EJ Salinas,Abernathy,101.7,172.37,106.59,165.56,444.52,Single-ply,SBD,M
Boys,109.77,3,Ian Ponce,Abernathy,104.01,188.24,97.52,149.69,435.45,Single-ply,SBD,M
Boys,109.77,4,Javier Olivera,Floydada,106.32,158.76,99.79,161.03,419.57,Single-ply,SBD,M
Boys,109.77,5,Jonah Lopez,Abernathy,106.91,161.03,97.52,161.03,419.57,Single-ply,SBD,M
Boys,109.77,DQ,Hector Pando,Plains,100.29,158.76,,,,Single-ply,SBD,M
Boys,124.74,1,Camilo DeLaRosa,Bovina,122.47,249.48,147.42,229.06,625.96,Single-ply,SBD,M
Boys,124.74,2,Miguel Davila,Friona,115.17,136.08,95.25,131.54,362.87,Single-ply,SBD,M
