Division,WeightClassKg,Place,Name,Team,BodyweightKg,Best3SquatKg,Best3BenchKg,Best3DeadliftKg,TotalKg,Equipment,Event,Sex
Boys,51.71,1,Angel Barrosso,Tyler Chapel Hill,51.71,142.88,90.72,149.69,383.29,Single-ply,SBD,M
Boys,55.79,1,BJ Stidham,Gladewater Sabine,54.34,199.58,102.06,188.24,489.88,Single-ply,SBD,M
Boys,55.79,2,Ryan Hammack,Elkhart,55.16,106.59,70.31,122.47,299.37,Single-ply,SBD,M
Boys,59.87,1,Tristan Larson,Tyler Chapel Hill,59.87,176.9,86.18,170.1,433.18,Single-ply,SBD,M
Boys,59.87,2,Kevin Chavez,New London West Rusk,59.87,151.95,97.52,181.44,430.91,Single-ply,SBD,M
Boys,59.87,3,Jaidon Garrick,Lindale,59.33,149.69,83.91,158.76,392.36,Single-ply,SBD,M
Boys,59.87,4,Peyton Snow,Winona,59.51,129.27,77.11,149.69,356.07,Single-ply,SBD,M
Boys,67.13,1,Caleb Smith,Troup,66.32,226.8,102.06,172.37,501.22,Single-ply,SBD,M
Boys,67.13,2,Mauro Gallegos,Gladewater Sabine,65.77,197.31,104.33,190.51,492.15,Single-ply,SBD,M
Boys,67.13,3,Chadd Cole,Troup,65.73,188.24,97.52,188.24,474,Single-ply,SBD,M
Boys,67.13,4,JD Prince,Beckville,65.95,170.1,97.52,185.97,453.59,Single-ply,SBD,M
Boys,67.13,5,Jaden Taylor,Lindale,62.32,174.63,90.72,176.9,442.25,Single-ply,SBD,M
Boys,67.13,6,Michael Rosales,Rusk,64.77,161.03,92.99,158.76,412.77,Single-ply,SBD,M
Boys,67.13,7,Alec Morris,Gladewater Sabine,65.41,145.15,97.52,149.69,392.36,Single-ply,SBD,M
Boys,67.13,8,Jonathan Escobar,Gladewater Sabine,64.59,124.74,83.91,170.1,378.75,Single-ply,SBD,M
Boys,67.13,9,Eduardo Rojo,Troup,66.9,129.27,83.91,158.76,371.95,Single-ply,SBD,M
Boys,67.13,10,Max Gomez,Beckville,62.87,113.4,54.43,124.74,292.57,Single-ply,SBD,M
Boys,67.13,11,Roger Gonzalez,Elkhart,67.13,102.06,61.23,113.4,276.69,Single-ply,SBD,M
Boys,74.84,1,Michael Zuniga,Troup,74.3,208.65,122.47,192.78,523.9,Single-ply,SBD,M
Boys,74.84,2,Bryce Attaway,Troup,74.25,199.58,122.47,188.24,510.29,Single-ply,SBD,M
Boys,74.84,3,Israel Enriquez,Rusk,73.39,190.51,99.79,181.44,471.74,Single-ply,SBD,M
Boys,74.84,4,Latavian Hudson,Tyler Chapel Hill,74.84,165.56,111.13,190.51,467.2,Single-ply,SBD,M
Boys,74.84,5,Gavin Pollard,Elkhart,74.84,142.88,106.59,176.9,426.38,Single-ply,SBD,M
Boys,74.84,6,Daniel Benitez,Lindale,71.49,154.22,81.65,172.37,408.23,Single-ply,SBD,M
Boys,74.84,7,Kole Stripland,Gladewater Sabine,71.94,124.74,92.99,133.81,351.53,Single-ply,SBD,M
Boys,74.84,8,Jeremiah Ramirez,Troup,68.58,113.4,72.57,122.47,308.44,Single-ply,SBD,M
Boys,74.84,DQ,Jaheir Upshaw,Rusk,70.58,,,,,Single-ply,SBD,M
Boys,82.1,1,Ramiro Martinez,Troup,80.38,258.55,151.95,272.16,682.66,Single-ply,SBD,M
Boys,82.1,2,Ryan Lindsay,Elkhart,78.11,276.69,136.08,249.48,662.24,Single-ply,SBD,M
Boys,82.1,3,Tristan Clark,Troup,81.78,229.06,127.01,233.6,589.67,Single-ply,SBD,M
Boys,82.1,4,Byron Johnson,Rusk,79.65,204.12,120.2,208.65,532.97,Single-ply,SBD,M
Boys,82.1,5,Keaton Hilliard,Tyler Chapel Hill,78.83,167.83,122.47,188.24,478.54,Single-ply,SBD,M
Boys,82.1,6,Bear Soriano,Lindale,80.74,188.24,104.33,174.63,467.2,Single-ply,SBD,M
Boys,82.1,7,Blake Szabo,Elkhart,76.66,97.52,79.38,124.74,301.64,Single-ply,SBD,M
Boys,82.1,DQ,Eli Morris,Gladewater Sabine,77.29,204.12,129.27,,,Single-ply,SBD,M
Boys,89.81,1,David Bledsoe,Lindale,87.09,242.67,131.54,251.74,625.96,Single-ply,SBD,M
Boys,89.81,2,Niko Flores,Lindale,84.46,215.46,122.47,226.8,564.72,Single-ply,SBD,M
Boys,89.81,3,Ethan Thorton,Lindale,87.63,213.19,111.13,183.7,508.02,Single-ply,SBD,M
Boys,89.81,4,Nick Gregory,Lindale,89.81,183.7,108.86,188.24,480.81,Single-ply,SBD,M
Boys,89.81,DQ,Tristan Holland,Beckville,86.91,,,,,Single-ply,SBD,M
Boys,89.81,DQ,Carson Hester,Gladewater Sabine,83.82,,,,,Single-ply,SBD,M
Boys,99.79,1,Ty McDaniel,Lindale,98.79,290.3,147.42,249.48,687.19,Single-ply,SBD,M
Boys,99.79,2,Trent Allen,Troup,93.98,294.84,154.22,229.06,678.12,Single-ply,SBD,M
Boys,99.79,3,Coltin Paskey,Tyler Chapel Hill,98.7,235.87,145.15,190.51,571.53,Single-ply,SBD,M
Boys,99.79,4,Nick Acker,Rusk,98.16,208.65,122.47,181.44,512.56,Single-ply,SBD,M
Boys,99.79,5,Jackson Smith,Tyler Chapel Hill,96.8,174.63,99.79,199.58,474,Single-ply,SBD,M
Boys,99.79,6,Gonzalo Rojo,Troup,98.16,185.97,97.52,158.76,442.25,Single-ply,SBD,M
Boys,99.79,7,Anthony Santa-Maria,Troup,95.3,161.03,117.93,156.49,435.45,Single-ply,SBD,M
Boys,99.79,8,Asher Foster,Gladewater Sabine,96.8,163.29,113.4,158.76,435.45,Single-ply,SBD,M
Boys,99.79,9,Abram Hairgrove,Beckville,92.8,158.76,90.72,163.29,412.77,Single-ply,SBD,M
Boys,99.79,10,Jackson Rogers,Rusk,91.81,147.42,90.72,147.42,385.55,Single-ply,SBD,M
Boys,99.79,11,Raul Cazares,Elkhart,94.98,147.42,70.31,151.95,369.68,Single-ply,SBD,M
Boys,99.79,DQ,Lane Gilchrest,Rusk,90.81,136.08,,,,Single-ply,SBD,M
Boys,99.79,DQ,Michael Raymond,New London West Rusk,96.34,,,,,Single-ply,SBD,M
Boys,109.77,1,TJ Jones,Elkhart,107.59,274.42,158.76,244.94,678.12,Single-ply,SBD,M
Boys,109.77,2,Christian Perez,Beckville,109.77,226.8,117.93,226.8,571.53,Single-ply,SBD,M
Boys,109.77,3,Seth Hoffman,Elkhart,108.86,210.92,122.47,210.92,544.31,Single-ply,SBD,M
Boys,109.77,4,Jonah Flores,Lindale,100.79,213.19,102.06,208.65,523.9,Single-ply,SBD,M
Boys,109.77,5,Weldon Brooks,Elkhart,104.96,195.04,122.47,190.51,508.02,Single-ply,SBD,M
Boys,109.77,6,Augustine Jaimes,Troup,108.05,167.83,90.72,149.69,408.23,Single-ply,SBD,M
Boys,109.77,7,Hunter Lambright,Beckville,103.42,127.01,77.11,142.88,347,Single-ply,SBD,M
Boys,124.74,1,Jermaine Lewis,Rusk,117.84,276.69,136.08,258.55,671.32,Single-ply,SBD,M
Boys,124.74,2,Matt Edwards,Lindale,121.11,260.82,156.49,231.33,648.64,Single-ply,SBD,M
Boys,124.74,3,Cason Cheney,Lindale,123.74,254.01,138.35,219.99,612.35,Single-ply,SBD,M
Boys,124.74,4,Michael Sutton,Tyler Chapel Hill,121.47,226.8,102.06,208.65,537.51,Single-ply,SBD,M
Boys,124.74,5,Jessie Hemmilenk,Lindale,110.77,210.92,108.86,215.46,535.24,Single-ply,SBD,M
Boys,124.74,6,Treven Wright,Overton,118.21,136.08,52.16,124.74,312.98,Single-ply,SBD,M
Boys,124.74+,1,Malik Gilliam,Troup,164.2,319.78,165.56,226.8,712.14,Single-ply,SBD,M
Boys,124.74+,2,Cade Jones,Elkhart,129.09,240.4,165.56,238.14,644.1,Single-ply,SBD,M
Boys,124.74+,3,Matthew Davis,Lindale,166.2,276.69,122.47,217.72,616.89,Single-ply,SBD,M
Boys,124.74+,4,Braeden Perry,Gladewater Sabine,137.44,204.12,149.69,199.58,553.38,Single-ply,SBD,M
Boys,124.74+,5,Garrett Blaylock,Rusk,132,201.85,117.93,204.12,523.9,Single-ply,SBD,M
Boys,124.74+,6,Jason Lazaro,Overton,125.83,142.88,81.65,138.35,362.87,Single-ply,SBD,M
