Division,WeightClassKg,Place,Name,Team,BodyweightKg,Best3SquatKg,Best3BenchKg,Best3DeadliftKg,TotalKg,Equipment,Event,Sex
Div 2,51.71,1,Justin Lindsey,Kennedale,49.99,181.44,90.72,161.03,433.18,Single-ply,SBD,M
Div 2,51.71,2,Angel Bermudez,Poteet,50.71,163.29,99.79,158.76,421.84,Single-ply,SBD,M
Div 2,51.71,3,Justin Dowdy,Wills Point,51.26,161.03,92.99,167.83,421.84,Single-ply,SBD,M
Div 2,51.71,4,Andrew Paredez,Big Spring,51.44,163.29,86.18,172.37,421.84,Single-ply,SBD,M
Div 2,51.71,5,Isaiah Lucio,Pearsall,51.62,149.69,102.06,161.03,412.77,Single-ply,SBD,M
Div 2,55.79,6,Ricardo Villafana,Splendora,51.89,156.49,86.18,156.49,399.16,Single-ply,SBD,M
Div 2,51.71,7,Jason Ayers,Lampasas,51.17,151.95,79.38,163.29,394.63,Single-ply,SBD,M
Div 2,51.71,8,Hunter Angelo,Orange Little Cypress-Mauriceville,50.62,156.49,72.57,163.29,392.36,Single-ply,SBD,M
Div 2,51.71,9,Jeremiah Ramirez,Levelland,48.9,147.42,74.84,167.83,390.09,Single-ply,SBD,M
Div 2,51.71,10,Jonathan Cardenas,Freeport Brazosport,51.62,151.95,86.18,151.95,390.09,Single-ply,SBD,M
Div 2,51.71,11,Jonathan Flores,Lampasas,50.98,133.81,83.91,165.56,383.29,Single-ply,SBD,M
Div 2,51.71,12,Juan Salazar,Bonham,51.71,147.42,95.25,140.61,383.29,Single-ply,SBD,M
Div 2,51.71,13,Trey Arras,Texarkana Liberty-Eylau,50.8,138.35,77.11,138.35,353.8,Single-ply,SBD,M
Div 2,55.79,1,Dimas Tenorio,Crystal City,54.79,192.78,120.2,192.78,505.76,Single-ply,SBD,M
Div 2,55.79,2,Tyler Nairn,Big Spring,54.7,204.12,104.33,190.51,498.95,Single-ply,SBD,M
Div 2,55.79,3,Ryan Thomas,Iowa Park,55.43,181.44,115.67,195.04,492.15,Single-ply,SBD,M
Div 2,59.87,4,Joseph Kelley,Cleveland,55.88,197.31,115.67,165.56,478.54,Single-ply,SBD,M
Div 2,55.79,5,Oscar Perez,Venus,55.61,195.04,108.86,172.37,476.27,Single-ply,SBD,M
Div 2,55.79,6,Miguel Hernandez,Emory Rains,54.25,195.04,108.86,165.56,469.47,Single-ply,SBD,M
Div 2,55.79,7,Julian Ortega,Rio Hondo,55.52,167.83,108.86,192.78,469.47,Single-ply,SBD,M
Div 2,55.79,8,Dalton Adkins,Iowa Park,55.34,172.37,113.4,167.83,453.59,Single-ply,SBD,M
Div 2,59.87,9,Mike Barajas,Hidalgo Early College,55.97,167.83,92.99,188.24,449.06,Single-ply,SBD,M
Div 2,55.79,10,Jaime Rodriguez,Jourdanton,54.79,195.04,74.84,165.56,435.45,Single-ply,SBD,M
Div 2,55.79,11,Isaiah Mesa,Taylor,55.34,149.69,113.4,165.56,428.64,Single-ply,SBD,M
Div 2,55.79,12,Raul Guerra,Poteet,55.61,154.22,106.59,167.83,428.64,Single-ply,SBD,M
Div 2,59.87,13,Daniel Sánchez,Midland Greenwood,56,145.15,90.72,158.76,394.63,Single-ply,SBD,M
Div 2,55.79,14,Collin Kovarcik,Needville,53.61,154.22,86.18,149.69,390.09,Single-ply,SBD,M
Div 2,55.79,15,Omar Hernandez,Athens,54.25,129.27,88.45,156.49,374.21,Single-ply,SBD,M
Div 2,55.79,DQ,Jesus Trevino,Zapata,54.61,165.56,95.25,,,Single-ply,SBD,M
Div 2,59.87,1,Jose Rodriguez,Athens,57.88,206.38,129.27,183.7,519.36,Single-ply,SBD,M
Div 2,59.87,2,Artemio Garcia,Zapata,59.33,210.92,113.4,190.51,514.83,Single-ply,SBD,M
Div 2,59.87,3,Jorge Perez,Venus,59.15,217.72,106.59,181.44,505.76,Single-ply,SBD,M
Div 2,59.87,4,Lucas Sosebee,Iowa Park,59.51,192.78,127.01,181.44,501.22,Single-ply,SBD,M
Div 2,59.87,5,Alex Amador,Freeport Brazosport,58.97,183.7,90.72,206.38,480.81,Single-ply,SBD,M
Div 2,59.87,6,Cody Hartman,Corpus Christi West Oso,59.33,190.51,108.86,174.63,474,Single-ply,SBD,M
Div 2,67.13,7,Erik Torres,Celina,60,183.7,124.74,165.56,474,Single-ply,SBD,M
Div 2,67.13,8,Jacob Trahan,Bridge City,60,185.97,95.25,188.24,469.47,Single-ply,SBD,M
Div 2,59.87,9,Michael Bartlett,Robinson,59.24,176.9,97.52,174.63,449.06,Single-ply,SBD,M
Div 2,59.87,10,Zachary Salazar,Lamesa,58.24,158.76,97.52,167.83,424.11,Single-ply,SBD,M
Div 2,59.87,11,Daniel Hernandez,Pecos,59.42,163.29,81.65,158.76,403.7,Single-ply,SBD,M
Div 2,59.87,DQ,Isaiah Payne,Crandall,58.33,183.7,90.72,,,Single-ply,SBD,M
Div 2,67.13,1,Andrew Alvidrez,Seminole,66.68,272.16,145.15,267.62,684.92,Single-ply,SBD,M
Div 2,67.13,2,Alan Alfaro,Rio Hondo,66.77,231.33,133.81,249.48,614.62,Single-ply,SBD,M
Div 2,67.13,3,Chris Hernandez,Venus,65.95,256.28,127.01,219.99,603.28,Single-ply,SBD,M
Div 2,67.13,4,Samuel Navarro,Beeville Jones,66.5,233.6,136.08,229.06,598.74,Single-ply,SBD,M
Div 2,67.13,5,Matthew Solomon,Texarkana Liberty-Eylau,66.86,233.6,136.08,215.46,585.13,Single-ply,SBD,M
Div 2,67.13,6,Heliseo Guerrero,Rio Hondo,64.14,210.92,133.81,231.33,576.06,Single-ply,SBD,M
Div 2,67.13,7,Manuel Rodriguez,Robinson,65.59,226.8,111.13,235.87,573.79,Single-ply,SBD,M
Div 2,67.13,8,Noah Steptoe,Navasota,66.86,222.26,120.2,213.19,555.65,Single-ply,SBD,M
Div 2,67.13,9,Cameron Moody,Shepherd,63.5,213.19,106.59,219.99,539.77,Single-ply,SBD,M
Div 2,67.13,10,Xzavius Gray,Paris,67.13,217.72,111.13,210.92,539.77,Single-ply,SBD,M
Div 2,67.13,11,Oscar Orozco,Castleberry,66.95,190.51,111.13,224.53,526.17,Single-ply,SBD,M
Div 2,74.84,12,Tyler Williams,Aubrey,67.22,204.12,111.13,206.38,521.63,Single-ply,SBD,M
Div 2,67.13,13,Jon Naylor,Midland Greenwood,66.13,219.99,117.93,172.37,510.29,Single-ply,SBD,M
Div 2,74.84,1,Deon Mitchell,Wichita Falls Hirschi,72.76,254.01,147.42,272.16,673.58,Single-ply,SBD,M
Div 2,74.84,2,Ty Slaughter,Anna,72.12,263.08,156.49,238.14,657.71,Single-ply,SBD,M
Div 2,74.84,3,Elliot Hanna,Levelland,71.85,229.06,136.08,244.94,610.08,Single-ply,SBD,M
Div 2,74.84,4,Joseph Ortiz,Jourdanton,71.85,263.08,140.61,204.12,607.81,Single-ply,SBD,M
Div 2,74.84,5,Sam Fisher,Bay City,74.03,199.58,145.15,249.48,594.21,Single-ply,SBD,M
Div 2,74.84,6,Woogie Powell,Navasota,73.57,219.99,136.08,233.6,589.67,Single-ply,SBD,M
Div 2,74.84,7,Daniel Hernandez,Taylor,74.48,229.06,122.47,231.33,582.87,Single-ply,SBD,M
Div 2,74.84,8,Colt Conway,Mabank,74.3,238.14,122.47,215.46,576.06,Single-ply,SBD,M
Div 2,74.84,9,Matt Hahn,Texarkana Pleasant Grove,71.94,204.12,136.08,231.33,571.53,Single-ply,SBD,M
Div 2,74.84,10,Tanner Jones,Sour Lake Hardin-Jefferson,74.66,199.58,115.67,222.26,537.51,Single-ply,SBD,M
Div 2,74.84,DQ,Jarric Weber,Borger,73.12,185.97,,,,Single-ply,SBD,M
Div 2,74.84,DQ,Nate Garcia,Jourdanton,74.03,,,,,Single-ply,SBD,M
Div 2,82.1,1,Alvin Battle,Atlanta,80.38,249.48,161.03,254.01,664.51,Single-ply,SBD,M
Div 2,82.1,2,Austin Moore,Orangefield,79.2,258.55,156.49,240.4,655.44,Single-ply,SBD,M
Div 2,82.1,3,Jose Cornejo,Andrews,80.47,242.67,136.08,269.89,648.64,Single-ply,SBD,M
Div 2,82.1,4,Everado Araujo,Taylor,80.83,247.21,154.22,247.21,648.64,Single-ply,SBD,M
Div 2,82.1,5,Abram Ramirez,Rio Hondo,81.01,238.14,156.49,249.48,644.1,Single-ply,SBD,M
Div 2,82.1,6,Juan Villa,Robinson,79.65,219.99,149.69,226.8,596.47,Single-ply,SBD,M
Div 2,82.1,7,Zanoah Arnold,Texarkana Liberty-Eylau,79.38,215.46,124.74,240.4,580.6,Single-ply,SBD,M
Div 2,82.1,8,Josh Bailey,Hamshire-Fannett,81.01,226.8,136.08,204.12,566.99,Single-ply,SBD,M
Div 2,82.1,9,Tyler Baker,Borger,79.47,195.04,129.27,208.65,532.97,Single-ply,SBD,M
Div 2,82.1,10,Grant Peters,Mineral Wells,77.66,192.78,136.08,183.7,512.56,Single-ply,SBD,M
Div 2,82.1,11,Milton Sarceno,Kingsville King,80.56,242.67,154.22,,396.89,Single-ply,SB,M
Div 2,82.1,DQ,Kolby Youngblood,Burkburnett,81.65,,,,,Single-ply,SBD,M
Div 2,89.81,1,Austin Cude,Navasota,89.45,274.42,172.37,251.74,698.53,Single-ply,SBD,M
Div 2,89.81,2,Eric Maldonado,Castleberry,89.09,254.01,161.03,274.42,689.46,Single-ply,SBD,M
Div 2,89.81,3,Ed Ruiz,Jourdanton,87.27,274.42,142.88,235.87,653.17,Single-ply,SBD,M
Div 2,89.81,4,Esteban Nunez,Caldwell,87.54,263.08,117.93,254.01,635.03,Single-ply,SBD,M
Div 2,89.81,5,Miguel Rangel,Borger,88.9,240.4,151.95,231.33,623.69,Single-ply,SBD,M
Div 2,89.81,6,Ricky Thompson,Robinson,88.81,226.8,127.01,263.08,616.89,Single-ply,SBD,M
Div 2,89.81,7,Kevin Kanzaki,Argyle,89.54,226.8,140.61,231.33,598.74,Single-ply,SBD,M
Div 2,89.81,8,DeCorrian Holmes,Jasper,85.55,217.72,129.27,249.48,596.47,Single-ply,SBD,M
Div 2,89.81,9,Tyler Rudolph,Kaufman,86.45,238.14,113.4,226.8,578.33,Single-ply,SBD,M
Div 2,89.81,10,Decorian Horton,Tyler Chapel Hill,86.45,215.46,142.88,217.72,576.06,Single-ply,SBD,M
Div 2,89.81,11,Matthew Seibert,Pecos,87.72,208.65,113.4,249.48,571.53,Single-ply,SBD,M
Div 2,89.81,12,Timoteo Flores,Sour Lake Hardin-Jefferson,88.63,208.65,131.54,208.65,548.85,Single-ply,SBD,M
Div 2,89.81,DQ,Isaiah Heredia,Rio Hondo,86.64,242.67,156.49,,,Single-ply,SBD,M
Div 2,89.81,DQ,Stephen Dorado,Rio Hondo,87.72,,,,,Single-ply,SBD,M
Div 2,99.79,1,Aaron Rodriguez,Beeville Jones,98.16,306.17,174.63,226.8,707.6,Single-ply,SBD,M
Div 2,99.79,2,Richy Ortiz,Bay City,99.06,265.35,163.29,260.82,689.46,Single-ply,SBD,M
Div 2,99.79,3,Delenis Garrett,Tyler Chapel Hill,99.06,276.69,161.03,247.21,684.92,Single-ply,SBD,M
Div 2,99.79,4,Taylor Hull,China Spring,97.7,278.96,154.22,249.48,682.66,Single-ply,SBD,M
Div 2,99.79,5,Reggie King,Tyler Chapel Hill,97.98,265.35,181.44,235.87,682.66,Single-ply,SBD,M
Div 2,99.79,6,Marquez Byrd,Navasota,97.34,269.89,138.35,272.16,680.39,Single-ply,SBD,M
Div 2,99.79,7,Carlos Zanzen,Needville,96.98,272.16,174.63,231.33,678.12,Single-ply,SBD,M
Div 2,99.79,8,Josue Reynosa,Columbus,96.25,272.16,158.76,240.4,671.32,Single-ply,SBD,M
Div 2,99.79,9,Marco Gutierrez,La Feria,97.79,256.28,167.83,240.4,664.51,Single-ply,SBD,M
Div 2,99.79,10,Zach Kwiatkowski,Corpus Christi West Oso,97.98,267.62,140.61,247.21,655.44,Single-ply,SBD,M
Div 2,99.79,11,Paul Ochoa,Levelland,96.89,265.35,170.1,217.72,653.17,Single-ply,SBD,M
Div 2,99.79,12,Taner Renfro,Quinlan Ford,98.79,272.16,142.88,233.6,648.64,Single-ply,SBD,M
Div 2,99.79,13,Manuel Murillo,Venus,96.25,263.08,170.1,213.19,646.37,Single-ply,SBD,M
Div 2,99.79,14,Aaron Puga,Beeville Jones,96.34,272.16,142.88,217.72,632.76,Single-ply,SBD,M
Div 2,99.79,15,Johnny Morales,Mineral Wells,97.61,272.16,158.76,192.78,623.69,Single-ply,SBD,M
Div 2,99.79,16,Dakota Williams,Decatur,99.52,226.8,129.27,226.8,582.87,Single-ply,SBD,M
Div 2,99.79,DQ,Jason Patterson,Kingsville King,96.71,,,,,Single-ply,SBD,M
Div 2,99.79,DQ,Felix Rodriguez,Midland Greenwood,97.98,240.4,151.95,,,Single-ply,SBD,M
Div 2,109.77,1,Hunter Phelps,Bullard,102.15,317.51,181.44,260.82,759.77,Single-ply,SBD,M
Div 2,109.77,2,Quavious Gamble,Mexia,107.05,285.76,165.56,267.62,718.94,Single-ply,SBD,M
Div 2,109.77,3,Jerrod Watkins,Orangefield,107.23,272.16,183.7,256.28,712.14,Single-ply,SBD,M
Div 2,109.77,4,Jeremy Rodriguez,Geronimo Navarro,107.77,290.3,185.97,233.6,709.87,Single-ply,SBD,M
Div 2,109.77,5,Paul Dominguez,Taylor,108.95,290.3,195.04,219.99,705.34,Single-ply,SBD,M
Div 2,109.77,6,Devincent Hoyt,Center,107.5,272.16,174.63,254.01,700.8,Single-ply,SBD,M
Div 2,109.77,7,Dennis Coleman,Paris,108.5,283.5,151.95,260.82,696.26,Single-ply,SBD,M
Div 2,109.77,8,Jean-Claude Butler,Hamshire-Fannett,106.68,281.23,163.29,249.48,694,Single-ply,SBD,M
Div 2,109.77,9,Esteban Lopez,Andrews,106.05,242.67,142.88,233.6,619.15,Single-ply,SBD,M
Div 2,109.77,10,Ryan Langley,Sanger,108.95,249.48,158.76,210.92,619.15,Single-ply,SBD,M
Div 2,109.77,11,Alex King,Levelland,107.23,201.85,151.95,249.48,603.28,Single-ply,SBD,M
Div 2,109.77,12,Tyler Jennings,Bridgeport,106.32,204.12,172.37,208.65,585.13,Single-ply,SBD,M
Div 2,109.77,DQ,Jose Soliz,Orange Grove,102.15,,,,,Single-ply,SBD,M
Div 2,124.74,1,Bobby Gonzales,Raymondville,122.92,387.82,249.48,274.42,911.72,Single-ply,SBD,M
Div 2,124.74,2,William Olson,Jourdanton,121.83,328.85,192.78,242.67,764.3,Single-ply,SBD,M
Div 2,124.74,3,Byron Bryant,Waco La Vega,122.65,308.44,167.83,265.35,741.62,Single-ply,SBD,M
Div 2,124.74,4,Gustavo Bonilla,Robinson,123.1,294.84,174.63,260.82,730.28,Single-ply,SBD,M
Div 2,124.74,5,Gonzalo Alegria,La Feria,121.83,331.12,154.22,240.4,725.75,Single-ply,SBD,M
Div 2,124.74,6,Nazario Garza,Rio Grande City Grulla,123.2,272.16,170.1,265.35,707.6,Single-ply,SBD,M
Div 2,124.74,7,Jordan Rivera,Waco La Vega,115.58,267.62,183.7,254.01,705.34,Single-ply,SBD,M
Div 2,124.74,8,Jonathan Ricks,Pleasanton,118.39,285.76,183.7,233.6,703.07,Single-ply,SBD,M
Div 2,124.74,9,Eldon Niblett,Midland Greenwood,114.94,290.3,145.15,240.4,675.85,Single-ply,SBD,M
Div 2,124.74,10,Bronson Burks,Bridgeport,124.47,260.82,147.42,267.62,675.85,Single-ply,SBD,M
Div 2,124.74,11,Oscar Gutierrez,Monahans,120.84,276.69,158.76,231.33,666.78,Single-ply,SBD,M
Div 2,124.74,12,Roe Wilkins,Sour Lake Hardin-Jefferson,114.21,272.16,142.88,249.48,664.51,Single-ply,SBD,M
Div 2,124.74,13,Brent Reed,Kennedale,120.02,258.55,145.15,260.82,664.51,Single-ply,SBD,M
Div 2,124.74,14,Josh Tillis,Palestine,117.84,226.8,192.78,222.26,641.83,Single-ply,SBD,M
Div 2,124.74,DQ,Robert Anthony Cervantes,Raymondville,118.12,319.78,,,,Single-ply,SBD,M
Div 2,124.74,DQ,Victor Guevara,Freeport Brazosport,116.57,,,,,Single-ply,SBD,M
Div 2,124.74,DQ,Justin Brister,Jourdanton,122.56,,,,,Single-ply,SBD,M
Div 2,124.74,DQ,Dorian Schutt,Bullard,123.47,233.6,170.1,,,Single-ply,SBD,M
Div 2,124.74+,1,Joseph Peña #1,San Antonio Holy Cross,145.33,383.29,195.04,251.74,830.07,Single-ply,SBD,M
Div 2,124.74+,2,Patrick Hudson,Silsbee,145.06,312.98,179.17,324.32,816.47,Single-ply,SBD,M
Div 2,124.74+,3,Mikey Esparza,Rockport-Fulton,130.27,340.19,199.58,238.14,777.91,Single-ply,SBD,M
Div 2,124.74+,4,John Reyes,Rio Hondo,145.42,310.71,192.78,260.82,764.3,Single-ply,SBD,M
Div 2,124.74+,5,Eduardo Sanchez,Zapata,149.5,303.91,199.58,258.55,762.04,Single-ply,SBD,M
Div 2,124.74+,6,Derek Templeman,Princeton,133.54,317.51,170.1,263.08,750.7,Single-ply,SBD,M
Div 2,124.74+,7,Wyatt Santos,Van,150.59,272.16,208.65,249.48,730.28,Single-ply,SBD,M
Div 2,124.74+,8,Marques Robinson,Waco Connally,150.86,317.51,167.83,242.67,728.02,Single-ply,SBD,M
Div 2,124.74+,9,Spencer Holsey,Borger,131.54,299.37,158.76,263.08,721.21,Single-ply,SBD,M
Div 2,124.74+,10,Qurdale Huff,Paris,174.81,294.84,170.1,254.01,718.94,Single-ply,SBD,M
Div 2,124.74+,11,Jacob Hartsell,Decatur,147.24,249.48,188.24,254.01,691.73,Single-ply,SBD,M
Div 2,124.74+,12,Jesus Rodriguez,Midland Greenwood,126.01,278.96,158.76,240.4,678.12,Single-ply,SBD,M
Div 2,124.74+,13,William Tinner,La Marque,141.61,215.46,154.22,215.46,585.13,Single-ply,SBD,M
Div 2,124.74+,DQ,Dustin Blankemeyer,Bellville,162.48,,,,,Single-ply,SBD,M
