Division,WeightClassKg,Place,Name,Team,BodyweightKg,Best3SquatKg,Best3BenchKg,Best3DeadliftKg,TotalKg,Equipment,Event,Sex
Boys,51.71,1,Julian Carbajal,Fort Worth Paschal,51.71,95.25,61.23,111.13,267.62,Single-ply,SBD,M
Boys,51.71,2,Jacob Densmore,Fort Worth Chisholm Trail,51.26,92.99,58.97,106.59,258.55,Single-ply,SBD,M
Boys,55.79,1,Tamijah Harris,Fort Worth Chisholm Trail,55.34,79.38,70.31,120.2,269.89,Single-ply,SBD,M
Boys,59.87,1,Davonte Green,Fort Worth Chisholm Trail,59.87,133.81,88.45,172.37,394.63,Single-ply,SBD,M
Boys,59.87,2,Santiago Piedrahata,Fort Worth Chisholm Trail,59.42,131.54,77.11,138.35,347,Single-ply,SBD,M
Boys,59.87,3,Julian Lucignani,Fort Worth Paschal,59.42,111.13,56.7,147.42,315.25,Single-ply,SBD,M
Boys,67.13,1,Thomas Jarrett,Fort Worth Paschal,67.13,136.08,86.18,161.03,383.29,Single-ply,SBD,M
Boys,67.13,2,Charles Ortiz,Fort Worth Paschal,66.68,124.74,79.38,147.42,351.53,Single-ply,SBD,M
Boys,67.13,3,Malik Williams,Fort Worth Chisholm Trail,66.22,111.13,83.91,138.35,333.39,Single-ply,SBD,M
Boys,67.13,4,Gavin Johnson,Saginaw,66.68,115.67,92.99,120.2,328.85,Single-ply,SBD,M
Boys,67.13,5,Jessie Espinosia,Saginaw,67.13,102.06,90.72,136.08,328.85,Single-ply,SBD,M
Boys,67.13,6,Emerson Sheperd,Saginaw,67.13,102.06,61.23,129.27,292.57,Single-ply,SBD,M
Boys,67.13,7,Zunair Waseem,Saginaw,63.96,102.06,61.23,111.13,274.42,Single-ply,SBD,M
Boys,67.13,8,Michael Jones-Bradley,Saginaw,66.22,,79.38,161.03,240.4,Single-ply,BD,M
Boys,67.13,DQ,Jordan Nunn,Fort Worth Chisholm Trail,66.68,,,,,Single-ply,BD,M
Boys,74.84,1,Andrue Monrreal,Fort Worth Chisholm Trail,74.39,142.88,90.72,190.51,424.11,Single-ply,SBD,M
Boys,74.84,2,Micheal Brewer,Saginaw,71.67,161.03,106.59,154.22,421.84,Single-ply,SBD,M
Boys,74.84,3,Xavier Clark,Fort Worth Chisholm Trail,73.94,147.42,88.45,158.76,394.63,Single-ply,SBD,M
Boys,74.84,4,Oscar Campos,Fort Worth Paschal,74.84,138.35,77.11,172.37,387.82,Single-ply,SBD,M
Boys,74.84,5,Eric Trevino,Fort Worth Paschal,71.21,129.27,77.11,170.1,376.48,Single-ply,SBD,M
Boys,82.1,1,Mario Marroquinia,Fort Worth Chisholm Trail,80.74,142.88,88.45,174.63,405.97,Single-ply,SBD,M
Boys,82.1,2,Ben Larson,Fort Worth Paschal,76.66,138.35,90.72,167.83,396.89,Single-ply,SBD,M
Boys,82.1,3,Christian McClain,Fort Worth Chisholm Trail,80.74,147.42,92.99,156.49,396.89,Single-ply,SBD,M
Boys,82.1,4,James Felming,Saginaw,75.75,,95.25,158.76,254.01,Single-ply,BD,M
Boys,82.1,DQ,Matthew Bachand,Fort Worth Paschal,78.02,,,,,Single-ply,BD,M
Boys,82.1,DQ,Isaac Garcia,Fort Worth Paschal,76.2,,,,,Single-ply,BD,M
Boys,82.1,DQ,Elijah Gibbons,Fort Worth Chisholm Trail,81.19,,,,,Single-ply,BD,M
Boys,89.81,1,Tyler Lungraj,Saginaw,89.81,183.7,97.52,183.7,464.93,Single-ply,SBD,M
Boys,89.81,DQ,Tevin Odongo,Fort Worth Chisholm Trail,89.81,170.1,,201.85,,Single-ply,SBD,M
Boys,99.79,1,Carlos Hernandez,Saginaw,99.34,231.33,115.67,210.92,557.92,Single-ply,SBD,M
Boys,99.79,2,Steven Williams,Saginaw,99.34,195.04,97.52,176.9,469.47,Single-ply,SBD,M
Boys,99.79,3,James Webb,Fort Worth Chisholm Trail,97.52,188.24,83.91,185.97,458.13,Single-ply,SBD,M
Boys,99.79,4,Ezra George,Fort Worth Chisholm Trail,98.88,161.03,92.99,190.51,444.52,Single-ply,SBD,M
Boys,99.79,5,Felix Rodriguez,Fort Worth Paschal,99.79,145.15,83.91,158.76,387.82,Single-ply,SBD,M
Boys,99.79,6,Gavin Miller,Saginaw,98.88,113.4,79.38,142.88,335.66,Single-ply,SBD,M
Boys,99.79,DQ,Landon Z Rhoades,Saginaw,98.88,,,,,Single-ply,SBD,M
Boys,109.77,1,Alexis Trejo,Saginaw,109.32,206.38,136.08,213.19,555.65,Single-ply,SBD,M
Boys,109.77,2,Fernando Torres,Saginaw,108.86,226.8,122.47,192.78,542.04,Single-ply,SBD,M
Boys,109.77,DQ,Case Mason,Saginaw,106.14,,,,,Single-ply,SBD,M
Boys,109.77,DQ,Travis Williams,Fort Worth Chisholm Trail,109.77,251.74,,244.94,,Single-ply,SBD,M
Boys,124.74,1,Demetrius Winkfield,Fort Worth Chisholm Trail,117.03,195.04,113.4,215.46,523.9,Single-ply,SBD,M
Boys,124.74,2,Gilbert Arroyo,Fort Worth Chisholm Trail,119.75,197.31,92.99,195.04,485.34,Single-ply,SBD,M
Boys,124.74,3,Sebastian Saucedo,Fort Worth Chisholm Trail,123.38,170.1,99.79,195.04,464.93,Single-ply,SBD,M
Boys,124.74,4,Ethan Reynolds,Saginaw,111.58,176.9,99.79,170.1,446.79,Single-ply,SBD,M
Boys,124.74,5,William Houze,Fort Worth Paschal,112.94,170.1,90.72,181.44,442.25,Single-ply,SBD,M
Boys,124.74,6,Robert Avila,Fort Worth Chisholm Trail,124.28,133.81,79.38,151.95,365.14,Single-ply,SBD,M
Boys,124.74+,1,James Ybarra,Fort Worth Chisholm Trail,133.81,190.51,108.86,170.1,469.47,Single-ply,SBD,M
Boys,124.74+,2,Barry Gorman,Fort Worth Chisholm Trail,135.17,176.9,92.99,179.17,449.06,Single-ply,SBD,M
Boys,124.74+,3,Adrian Little,Saginaw,144.24,,131.54,195.04,326.59,Single-ply,BD,M
