Division,WeightClassKg,Place,Name,Team,BodyweightKg,Best3SquatKg,Best3BenchKg,Best3DeadliftKg,TotalKg,Equipment,Event,Sex
Boys,51.71,1,Jaden Brown,Paris North Lamar,51.44,113.4,63.5,151.95,328.85,Single-ply,SBD,M
Boys,51.71,2,Trenton Johnson,Sulphur Springs,49.71,102.06,56.7,127.01,285.76,Single-ply,SBD,M
Boys,51.71,3,Carson Johnson,Paris,47.63,90.72,54.43,92.99,238.14,Single-ply,SBD,M
Boys,51.71,4,Austin McCain,Sulphur Springs,38.92,61.23,38.56,74.84,174.63,Single-ply,SBD,M
Boys,55.79,1,Blayce Lassiter,Paris North Lamar,55.61,156.49,65.77,156.49,378.75,Single-ply,SBD,M
Boys,55.79,2,Deuntre Adamson,Paris,54.25,129.27,79.38,145.15,353.8,Single-ply,SBD,M
Boys,55.79,3,Kole Barrentine,Pattonville Prairiland,55.7,97.52,68.04,142.88,308.44,Single-ply,SBD,M
Boys,55.79,4,Corbin Strain,Pattonville Prairiland,52.25,102.06,65.77,113.4,281.23,Single-ply,SBD,M
Boys,59.87,1,Keiotti Bray,Paris,58.15,188.24,117.93,183.7,489.88,Single-ply,SBD,M
Boys,59.87,2,Daniel Landaverde,Mount Pleasant,59.15,165.56,90.72,190.51,446.79,Single-ply,SBD,M
Boys,59.87,3,Abel Moreno,Pattonville Prairiland,59.06,127.01,65.77,127.01,319.78,Single-ply,SBD,M
Boys,59.87,4,Joel Ibarra,Paris Chisum,58.15,115.67,70.31,129.27,315.25,Single-ply,SBD,M
Boys,59.87,5,Zane Phillips,Mount Pleasant,58.97,106.59,58.97,129.27,294.84,Single-ply,SBD,M
Boys,59.87,6,David Nava,Mount Pleasant,58.33,111.13,58.97,122.47,292.57,Single-ply,SBD,M
Boys,67.13,1,Dedrick Hill,Hughes Springs,63.05,183.7,111.13,185.97,480.81,Single-ply,SBD,M
Boys,67.13,2,Jesus Perez,Mount Pleasant,66.04,183.7,88.45,199.58,471.74,Single-ply,SBD,M
Boys,67.13,3,Colton Danna,Pattonville Prairiland,67.04,170.1,124.74,174.63,469.47,Single-ply,SBD,M
Boys,67.13,4,Wesley Gage,Paris,60.78,170.1,99.79,181.44,451.32,Single-ply,SBD,M
Boys,67.13,5,Bryce Evans,Paris North Lamar,66.95,158.76,92.99,165.56,417.3,Single-ply,SBD,M
Boys,67.13,6,Hayden Keller,Sulphur Springs,63.41,136.08,81.65,158.76,376.48,Single-ply,SBD,M
Boys,67.13,7,Caleb Ashley,Paris Chisum,60.78,129.27,90.72,154.22,374.21,Single-ply,SBD,M
Boys,67.13,8,Corbin Martin,Paris,64.32,131.54,74.84,140.61,347,Single-ply,SBD,M
Boys,67.13,9,Brian Vaca,Longview Spring Hill,61.42,129.27,70.31,136.08,335.66,Single-ply,SBD,M
Boys,67.13,10,Alex Vaseleck,Mount Pleasant,62.6,115.67,54.43,136.08,306.17,Single-ply,SBD,M
Boys,67.13,11,Kanon Tongson,Paris Chisum,61.6,106.59,68.04,120.2,294.84,Single-ply,SBD,M
Boys,67.13,12,Ethan Mays,Mount Pleasant Chapel Hill,64.5,90.72,45.36,158.76,294.84,Single-ply,SBD,M
Boys,67.13,13,Hayden Justice,Paris North Lamar,65.32,142.88,,,142.88,Single-ply,S,M
Boys,74.84,1,Billy Long,Ore City,72.85,192.78,120.2,179.17,492.15,Single-ply,SBD,M
Boys,74.84,2,Roberto Netro,Mount Pleasant Chapel Hill,73.75,163.29,111.13,181.44,455.86,Single-ply,SBD,M
Boys,74.84,3,Noah Johnson,Sulphur Springs,74.3,158.76,113.4,172.37,444.52,Single-ply,SBD,M
Boys,74.84,4,James Smith,Bogata Rivercrest,68.13,156.49,88.45,167.83,412.77,Single-ply,SBD,M
Boys,74.84,5,Seth Brower,Maud,74.3,142.88,83.91,181.44,408.23,Single-ply,SBD,M
Boys,74.84,6,Carlos Netro,Mount Pleasant Chapel Hill,68.13,136.08,97.52,170.1,403.7,Single-ply,SBD,M
Boys,74.84,7,Trevor Lolies,Maud,73.21,142.88,88.45,163.29,394.63,Single-ply,SBD,M
Boys,74.84,8,Andrew Byrd,Hughes Springs,72.39,127.01,97.52,156.49,381.02,Single-ply,SBD,M
Boys,74.84,9,Wesley Butler,Hughes Springs,69.94,129.27,117.93,131.54,378.75,Single-ply,SBD,M
Boys,74.84,10,Dustin Newman,Mount Pleasant Chapel Hill,71.21,117.93,74.84,154.22,347,Single-ply,SBD,M
Boys,74.84,11,Omar Ramirez,Mount Pleasant,73.03,122.47,86.18,133.81,342.46,Single-ply,SBD,M
Boys,74.84,12,Matthew Shankles,Longview Spring Hill,69.4,136.08,70.31,124.74,331.12,Single-ply,SBD,M
Boys,74.84,13,Karson Davis,Mount Pleasant Chapel Hill,73.84,102.06,65.77,156.49,324.32,Single-ply,SBD,M
Boys,74.84,14,Jacob Isbell,Mount Pleasant Chapel Hill,74.84,102.06,56.7,151.95,310.71,Single-ply,SBD,M
Boys,74.84,DQ,Quay Porter,Paris,70.76,124.74,,,,Single-ply,SBD,M
Boys,74.84,DQ,Tj Nickerson,Paris,67.4,,,,,Single-ply,SBD,M
Boys,74.84,DQ,Montrel McCarty,Paris,68.04,131.54,,,,Single-ply,SBD,M
Boys,74.84,DQ,Jayden Bruce,Hughes Springs,72.85,,,,,Single-ply,SBD,M
Boys,74.84,DQ,Drayven Garrison,Bogata Rivercrest,73.48,,,,,Single-ply,SBD,M
Boys,74.84,DQ,Ryan Carrillo,Sulphur Springs,69.49,,,,,Single-ply,SBD,M
Boys,82.1,1,Jaxon Hevron,Paris North Lamar,82.01,244.94,147.42,233.6,625.96,Single-ply,SBD,M
Boys,82.1,2,Dakota Grant,Simms Bowie,79.83,195.04,115.67,233.6,544.31,Single-ply,SBD,M
Boys,82.1,3,Trace Smith,Pattonville Prairiland,76.66,174.63,127.01,210.92,512.56,Single-ply,SBD,M
Boys,82.1,4,George Greenway,Sulphur Springs,78.56,192.78,113.4,192.78,498.95,Single-ply,SBD,M
Boys,82.1,5,Trentyn Ortega,Paris Chisum,80.83,149.69,90.72,247.21,487.61,Single-ply,SBD,M
Boys,82.1,6,Dillon Kizer,De Kalb,75.66,170.1,102.06,183.7,455.86,Single-ply,SBD,M
Boys,82.1,7,Arie Love,De Kalb,79.02,170.1,90.72,183.7,444.52,Single-ply,SBD,M
Boys,82.1,8,Oscar Gallegos,Longview Spring Hill,82.01,181.44,106.59,149.69,437.72,Single-ply,SBD,M
Boys,82.1,9,Mario Rodriguez,Mount Pleasant,78.93,140.61,72.57,147.42,360.61,Single-ply,SBD,M
Boys,82.1,10,Trevor Gilliam,Paris Chisum,78.11,127.01,77.11,142.88,347,Single-ply,SBD,M
Boys,82.1,11,Ethan Lum,Simms Bowie,81.92,124.74,88.45,127.01,340.19,Single-ply,SBD,M
Boys,82.1,DQ,Nacory Lee,Hughes Springs,76.66,,,,,Single-ply,SBD,M
Boys,89.81,1,Morgan Landreth,Pattonville Prairiland,87.91,272.16,151.95,226.8,650.91,Single-ply,SBD,M
Boys,89.81,2,Zach Hooper,Simms Bowie,84.46,163.29,81.65,204.12,449.06,Single-ply,SBD,M
Boys,89.81,3,Michael Marrs,Longview Spring Hill,82.37,145.15,108.86,183.7,437.72,Single-ply,SBD,M
Boys,89.81,4,José Cortés,Pattonville Prairiland,88.36,158.76,102.06,140.61,401.43,Single-ply,SBD,M
Boys,89.81,5,Brandon Krenek,Longview Spring Hill,87.18,149.69,86.18,147.42,383.29,Single-ply,SBD,M
Boys,89.81,6,Bryan Zuniga,Mount Pleasant Chapel Hill,83.19,102.06,56.7,147.42,306.17,Single-ply,SBD,M
Boys,89.81,DQ,Vaughan Bufkin,Longview Spring Hill,87.54,,,,,Single-ply,SBD,M
Boys,99.79,1,Hunter Moore,Paris North Lamar,93.98,240.4,136.08,226.8,603.28,Single-ply,SBD,M
Boys,99.79,2,Garrison McKinnie,De Kalb,98.16,192.78,142.88,201.85,537.51,Single-ply,SBD,M
Boys,99.79,3,Dakota Kizer,De Kalb,98.61,204.12,127.01,201.85,532.97,Single-ply,SBD,M
Boys,99.79,4,Zack Pilgrim,Hughes Springs,91.08,192.78,142.88,192.78,528.44,Single-ply,SBD,M
Boys,99.79,5,Edher Oviedo,Mount Pleasant,99.79,183.7,104.33,213.19,501.22,Single-ply,SBD,M
Boys,99.79,6,Nakia Lee,Hughes Springs,97.89,185.97,127.01,185.97,498.95,Single-ply,SBD,M
Boys,99.79,7,Ian Lail,Mount Pleasant Chapel Hill,99.52,181.44,104.33,199.58,485.34,Single-ply,SBD,M
Boys,99.79,8,Jay Bell,Paris,91.81,188.24,111.13,165.56,464.93,Single-ply,SBD,M
Boys,99.79,9,Chris Clavel,Mount Pleasant,92.71,167.83,99.79,172.37,439.98,Single-ply,SBD,M
Boys,99.79,10,Carter Renfro,Paris North Lamar,95.8,161.03,92.99,174.63,428.64,Single-ply,SBD,M
Boys,99.79,11,Jacob Hernandez,Sulphur Springs,97.34,192.78,88.45,147.42,428.64,Single-ply,SBD,M
Boys,99.79,12,Steven Jonaitis,Sulphur Springs,91.35,176.9,83.91,158.76,419.57,Single-ply,SBD,M
Boys,99.79,13,Blake Mays,Mount Pleasant,97.7,147.42,92.99,149.69,390.09,Single-ply,SBD,M
Boys,99.79,DQ,Fernando Gutierrez,Ore City,99.52,,,,,Single-ply,SBD,M
Boys,109.77,1,Tyler Watts,Simms Bowie,108.23,272.16,147.42,238.14,657.71,Single-ply,SBD,M
Boys,109.77,2,Hunter Brabham,Hughes Springs,105.96,244.94,145.15,195.04,585.13,Single-ply,SBD,M
Boys,109.77,3,George Lias,Mount Pleasant,104.87,235.87,115.67,222.26,573.79,Single-ply,SBD,M
Boys,109.77,4,Quin Dangerfield,Paris,107.95,197.31,136.08,199.58,532.97,Single-ply,SBD,M
Boys,109.77,5,Brock Foster,Maud,104.87,181.44,124.74,204.12,510.29,Single-ply,SBD,M
Boys,109.77,6,Chance Sprague,Maud,107.86,185.97,113.4,192.78,492.15,Single-ply,SBD,M
Boys,109.77,7,David Hart,Ore City,108.41,192.78,127.01,165.56,485.34,Single-ply,SBD,M
Boys,109.77,8,Jacob Kimbrough,Longview Spring Hill,107.95,192.78,97.52,179.17,469.47,Single-ply,SBD,M
Boys,109.77,9,Alexis Morales,Mount Pleasant,107.95,167.83,99.79,176.9,444.52,Single-ply,SBD,M
Boys,109.77,10,Ethen Thrapp,Mount Pleasant Chapel Hill,107.86,136.08,83.91,170.1,390.09,Single-ply,SBD,M
Boys,109.77,11,Logan Hawkinis,Paris Chisum,109.32,111.13,88.45,136.08,335.66,Single-ply,SBD,M
Boys,124.74,1,Lucas Stephenson,Simms Bowie,124.65,274.42,131.54,235.87,641.83,Single-ply,SBD,M
Boys,124.74,2,Joey Haley,Paris North Lamar,122.92,215.46,142.88,249.48,607.81,Single-ply,SBD,M
Boys,124.74,3,Carson Manasse,Longview Spring Hill,115.48,219.99,120.2,233.6,573.79,Single-ply,SBD,M
Boys,124.74,4,Cade Blount,Longview Spring Hill,120.84,226.8,111.13,233.6,571.53,Single-ply,SBD,M
Boys,124.74,5,Ignacio Guerrero,Sulphur Springs,110.5,204.12,133.81,204.12,542.04,Single-ply,SBD,M
Boys,124.74,6,Jashon Pogue,Mount Pleasant,110.5,190.51,120.2,226.8,537.51,Single-ply,SBD,M
Boys,124.74,7,Kutter Walker,Simms Bowie,115.03,199.58,117.93,213.19,530.7,Single-ply,SBD,M
Boys,124.74,8,Whitt Rogers,Simms Bowie,116.3,226.8,104.33,199.58,530.7,Single-ply,SBD,M
Boys,124.74,9,Alex Medina,Sulphur Springs,110.95,226.8,102.06,183.7,512.56,Single-ply,SBD,M
Boys,124.74,10,Ivan Elizando,Mount Pleasant,112.58,192.78,104.33,204.12,501.22,Single-ply,SBD,M
Boys,124.74,11,Devin Burton,Paris North Lamar,116.12,124.74,79.38,165.56,369.68,Single-ply,SBD,M
Boys,124.74,12,Kohlson Ivey,Sulphur Springs,115.39,158.76,70.31,136.08,365.14,Single-ply,SBD,M
Boys,124.74,13,Cole Carson,Bogata Rivercrest,116.57,140.61,79.38,129.27,349.27,Single-ply,SBD,M
Boys,124.74,14,Luke Hohenberger,Paris North Lamar,113.4,133.81,79.38,124.74,337.93,Single-ply,SBD,M
Boys,124.74,15,Dylan Smith,Mount Pleasant Chapel Hill,120.47,113.4,81.65,136.08,331.12,Single-ply,SBD,M
Boys,124.74+,1,Alex Sultz,Maud,135.44,272.16,147.42,238.14,657.71,Single-ply,SBD,M
Boys,124.74+,2,Blake Denson,Mount Pleasant,130.27,199.58,108.86,204.12,512.56,Single-ply,SBD,M
Boys,124.74+,3,Gabe Acosta,Maud,152.5,215.46,115.67,181.44,512.56,Single-ply,SBD,M
Boys,124.74+,4,Tyler Welborn,Mount Pleasant,145.24,181.44,92.99,172.37,446.79,Single-ply,SBD,M
Boys,124.74+,5,Alfredo Olaveto,Sulphur Springs,138.89,158.76,77.11,204.12,439.98,Single-ply,SBD,M
Boys,124.74+,6,Bodee Robinson,Paris North Lamar,133.81,124.74,97.52,183.7,405.97,Single-ply,SBD,M
Boys,124.74+,7,Garrick Felsberg,Paris North Lamar,126.92,113.4,74.84,120.2,308.44,Single-ply,SBD,M
