Division,WeightClassKg,Place,Name,Team,BodyweightKg,Best3SquatKg,Best3BenchKg,Best3DeadliftKg,TotalKg,Equipment,Event,Sex
Girls,44.23,1,Kady Knox,Early,43.27,72.57,34.02,92.99,199.58,Single-ply,SBD,F
Girls,44.23,2,Katelyn Espinosa,Early,43,77.11,38.56,74.84,190.51,Single-ply,SBD,F
Girls,47.85,1,Haden Carrillo,Stephenville,46.63,79.38,38.56,92.99,210.92,Single-ply,SBD,F
Girls,47.85,2,Hunter Wilson,Lingleville,47.17,77.11,38.56,95.25,210.92,Single-ply,SBD,F
Girls,47.85,3,Rebekah Proffitt,Lingleville,46.36,74.84,40.82,92.99,208.65,Single-ply,SBD,F
Girls,47.85,4,Maeci Ray,Stephenville,44.45,61.23,38.56,90.72,190.51,Single-ply,SBD,F
Girls,51.94,1,Alexis Mauricio,Cross Plains,51.71,113.4,52.16,108.86,274.42,Single-ply,SBD,F
Girls,51.94,2,Taylor Netherton,Early,50.44,108.86,45.36,117.93,272.16,Single-ply,SBD,F
Girls,51.94,3,Angela Guerrero,Comanche,51.35,88.45,52.16,97.52,238.14,Single-ply,SBD,F
Girls,51.94,4,Sesily Aguirre,Dublin,51.8,86.18,43.09,88.45,217.72,Single-ply,SBD,F
Girls,51.94,5,Alexis Norman,Glen Rose,51.44,63.5,36.29,83.91,183.7,Single-ply,SBD,F
Girls,56.02,1,Gabby Constancia,Early,55.79,124.74,61.23,117.93,303.91,Single-ply,SBD,F
Girls,56.02,2,Gabrielle Hamilton,Early,54.79,104.33,52.16,97.52,254.01,Single-ply,SBD,F
Girls,56.02,3,Anayely Escobar,Dublin,55.97,106.59,47.63,97.52,251.74,Single-ply,SBD,F
Girls,56.02,4,Antonia Diaz,Glen Rose,55.88,79.38,43.09,99.79,222.26,Single-ply,SBD,F
Girls,56.02,5,Sandy Delgado,Glen Rose,53.07,72.57,38.56,102.06,213.19,Single-ply,SBD,F
Girls,56.02,6,Sidney Beaver,Stephenville,53.16,74.84,43.09,90.72,208.65,Single-ply,SBD,F
Girls,56.02,7,Kimberly Bills,Comanche,55.93,79.38,34.02,83.91,197.31,Single-ply,SBD,F
Girls,56.02,8,Maritza Mendoza,Dublin,55.79,56.7,29.48,83.91,170.1,Single-ply,SBD,F
Girls,56.02,DQ,Isabel Vega,San Saba,55.25,,36.29,83.91,,Single-ply,SBD,F
Girls,56.02,DQ,Mariana Reyes,Stephenville,52.25,,,,,Single-ply,SBD,F
Girls,60.1,1,Hallie Brinson,Early,59.42,133.81,65.77,145.15,344.73,Single-ply,SBD,F
Girls,60.1,2,Morgan Kent,Early,59.15,124.74,61.23,117.93,303.91,Single-ply,SBD,F
Girls,60.1,3,Baylie DeViney,Stephenville,57.79,102.06,61.23,117.93,281.23,Single-ply,SBD,F
Girls,60.1,4,Maritza Lopez,Comanche,59.74,99.79,47.63,124.74,272.16,Single-ply,SBD,F
Girls,60.1,5,Jillian Whitman,San Saba,59.24,83.91,40.82,90.72,215.46,Single-ply,SBD,F
Girls,60.1,6,Bailey Diaz,Coleman,59.15,83.91,38.56,90.72,213.19,Single-ply,SBD,F
Girls,60.1,7,Nikayla Smart,Lometa,56.06,56.7,34.02,86.18,176.9,Single-ply,SBD,F
Girls,60.1,DQ,Madison Brudney,Coleman,59.51,,,81.65,,Single-ply,SBD,F
Girls,67.36,1,Sydnee Shea,Early,65.5,131.54,68.04,127.01,326.59,Single-ply,SBD,F
Girls,67.36,2,Hanna Crockett,Cross Plains,64.05,113.4,43.09,108.86,265.35,Single-ply,SBD,F
Girls,67.36,3,Valerie Garcia,Dublin,64.41,97.52,43.09,115.67,256.28,Single-ply,SBD,F
Girls,67.36,4,Emilia Wursching,Dublin,64.95,92.99,45.36,111.13,249.48,Single-ply,SBD,F
Girls,67.36,5,Shelby Stamm,Lingleville,62.32,79.38,36.29,115.67,231.33,Single-ply,SBD,F
Girls,67.36,6,Gabby Guerrero,Coleman,67.13,92.99,38.56,90.72,222.26,Single-ply,SBD,F
Girls,67.36,7,Hannah Whitehead,Moran,61.78,72.57,36.29,86.18,195.04,Single-ply,SBD,F
Girls,67.36,8,Kassidy Holland,Early,63.5,72.57,27.22,81.65,181.44,Single-ply,SBD,F
Girls,75.07,1,Ariel Lewis,Early,69.85,138.35,56.7,138.35,333.39,Single-ply,SBD,F
Girls,75.07,2,Yessenia Rodriguez,Dublin,67.77,104.33,49.9,115.67,269.89,Single-ply,SBD,F
Girls,75.07,3,Carly Rodriguez,Comanche,74.12,102.06,56.7,108.86,267.62,Single-ply,SBD,F
Girls,75.07,4,Isela Delgado,Glen Rose,71.12,106.59,45.36,113.4,265.35,Single-ply,SBD,F
Girls,75.07,5,Railie Steele,Dublin,68.04,92.99,54.43,111.13,258.55,Single-ply,SBD,F
Girls,75.07,6,Sidney Garcia,Glen Rose,69.04,102.06,43.09,99.79,244.94,Single-ply,SBD,F
Girls,75.07,7,Marissa Cantu,Glen Rose,69.58,90.72,40.82,108.86,240.4,Single-ply,SBD,F
Girls,75.07,8,Dayinira Inman,Stephenville,68.22,72.57,38.56,86.18,197.31,Single-ply,SBD,F
Girls,82.33,1,Jessica Ebeling,Stephenville,79.65,102.06,63.5,111.13,276.69,Single-ply,SBD,F
Girls,90.04,1,Veronica Villarreal,Early,87,129.27,70.31,136.08,335.66,Single-ply,SBD,F
Girls,90.04,DQ,Daisy Garza,Coleman,82.92,88.45,36.29,,,Single-ply,SBD,F
Girls,90.04,DQ,Terra Reed,Coleman,88.18,,47.63,106.59,,Single-ply,SBD,F
Girls,90.04,DQ,Mallory Gunter,Stephenville,88.09,136.08,68.04,,,Single-ply,SBD,F
Girls,100.02,DQ,Nikita Salas,Comanche,97.79,88.45,,81.65,,Single-ply,SBD,F
Girls,117.71,1,Nadine Arredondo,Stephenville,110.86,170.1,70.31,149.69,390.09,Single-ply,SBD,F
Girls,117.71,2,Katlin Parks,Coleman,108.77,158.76,68.04,117.93,344.73,Single-ply,SBD,F
Girls,117.71,3,Lucero Hernandez,Lometa,106.68,111.13,43.09,115.67,269.89,Single-ply,SBD,F
Girls,117.71,4,Leticia Salas,Comanche,108.36,81.65,52.16,92.99,226.8,Single-ply,SBD,F
